release/v0.0/electrical/data/driver/125Hz_130V_Waft_2.csv

X,CH1,CH2,CH3,Start,Increment,
Sequence,Volt,Volt,Volt,-3.000000e-02,5.000000e-05
0,1.22e+02,1.84e+00,2.24e+00,
1,1.18e+02,2.24e+00,1.92e+00,
2,1.22e+02,2.24e+00,2.24e+00,
3,1.16e+02,1.76e+00,1.92e+00,
4,1.20e+02,2.16e+00,2.24e+00,
5,1.14e+02,1.60e+00,1.84e+00,
6,1.18e+02,2.16e+00,2.16e+00,
7,1.10e+02,1.68e+00,1.76e+00,
8,1.18e+02,2.08e+00,1.76e+00,
9,1.08e+02,1.60e+00,2.08e+00,
10,1.12e+02,2.08e+00,1.68e+00,
11,1.06e+02,1.60e+00,2.08e+00,
12,1.12e+02,2.00e+00,2.00e+00,
13,1.04e+02,1.52e+00,1.68e+00,
14,1.10e+02,2.00e+00,1.92e+00,
15,1.00e+02,1.52e+00,1.60e+00,
16,1.08e+02,1.92e+00,1.92e+00,
17,1.00e+02,1.52e+00,1.60e+00,
18,1.04e+02,1.92e+00,1.84e+00,
19,9.60e+01,1.36e+00,1.52e+00,
20,1.00e+02,1.84e+00,1.84e+00,
21,9.40e+01,1.36e+00,1.44e+00,
22,9.80e+01,1.76e+00,1.76e+00,
23,9.00e+01,1.28e+00,1.36e+00,
24,9.40e+01,1.76e+00,1.76e+00,
25,8.80e+01,1.20e+00,1.36e+00,
26,9.20e+01,1.68e+00,1.68e+00,
27,8.40e+01,1.20e+00,1.28e+00,
28,8.80e+01,1.68e+00,1.60e+00,
29,8.20e+01,1.12e+00,1.20e+00,
30,8.60e+01,1.60e+00,1.60e+00,
31,7.80e+01,1.12e+00,1.20e+00,
32,8.20e+01,1.52e+00,1.44e+00,
33,7.40e+01,1.04e+00,1.04e+00,
34,7.80e+01,1.04e+00,1.44e+00,
35,7.00e+01,1.52e+00,1.04e+00,
36,7.60e+01,1.36e+00,1.36e+00,
37,6.80e+01,9.60e-01,9.60e-01,
38,7.20e+01,1.36e+00,9.60e-01,
39,6.40e+01,8.00e-01,1.28e+00,
40,6.80e+01,1.28e+00,8.00e-01,
41,6.20e+01,8.80e-01,1.28e+00,
42,6.60e+01,1.28e+00,1.20e+00,
43,5.80e+01,8.00e-01,7.20e-01,
44,6.20e+01,1.20e+00,1.20e+00,
45,5.40e+01,6.40e-01,7.20e-01,
46,6.00e+01,1.12e+00,1.12e+00,
47,5.20e+01,6.40e-01,6.40e-01,
48,5.60e+01,1.04e+00,9.60e-01,
49,4.60e+01,6.40e-01,5.60e-01,
50,5.40e+01,1.04e+00,5.60e-01,
51,4.40e+01,5.60e-01,9.60e-01,
52,4.80e+01,9.60e-01,8.80e-01,
53,4.20e+01,4.80e-01,4.00e-01,
54,4.60e+01,1.04e+00,8.80e-01,
55,3.80e+01,4.80e-01,4.00e-01,
56,4.40e+01,8.80e-01,8.00e-01,
57,3.40e+01,3.20e-01,3.20e-01,
58,4.00e+01,8.00e-01,7.20e-01,
59,3.20e+01,3.20e-01,3.20e-01,
60,3.60e+01,8.00e-01,2.40e-01,
61,3.00e+01,2.40e-01,7.20e-01,
62,3.40e+01,2.40e-01,2.40e-01,
63,2.80e+01,7.20e-01,6.40e-01,
64,3.20e+01,7.20e-01,5.60e-01,
65,2.40e+01,1.60e-01,2.40e-01,
66,2.80e+01,6.40e-01,5.60e-01,
67,2.20e+01,1.60e-01,1.60e-01,
68,2.60e+01,6.40e-01,1.60e-01,
69,2.00e+01,8.00e-02,4.80e-01,
70,2.40e+01,8.00e-02,4.80e-01,
71,1.60e+01,4.80e-01,1.60e-01,
72,2.20e+01,4.80e-01,4.80e-01,
73,1.40e+01,8.00e-02,1.60e-01,
74,1.80e+01,4.80e-01,4.00e-01,
75,1.20e+01,0.00e+00,8.00e-02,
76,1.60e+01,4.00e-01,8.00e-02,
77,1.00e+01,0.00e+00,4.00e-01,
78,1.40e+01,4.00e-01,4.00e-01,
79,8.00e+00,-8.00e-02,8.00e-02,
80,1.40e+01,3.20e-01,3.20e-01,
81,6.00e+00,-1.60e-01,0.00e+00,
82,1.20e+01,3.20e-01,0.00e+00,
83,4.00e+00,-8.00e-02,3.20e-01,
84,8.00e+00,3.20e-01,3.20e-01,
85,4.00e+00,-8.00e-02,0.00e+00,
86,8.00e+00,-8.00e-02,2.40e-01,
87,4.00e+00,2.40e-01,-8.00e-02,
88,8.00e+00,2.40e-01,-8.00e-02,
89,2.00e+00,-1.60e-01,2.40e-01,
90,2.00e+00,2.40e-01,-8.00e-02,
91,6.00e+00,-1.60e-01,2.40e-01,
92,2.00e+00,0.00e+00,8.00e-02,
93,6.00e+00,1.60e-01,-8.00e-02,
94,6.00e+00,-1.60e-01,-8.00e-02,
95,2.00e+00,2.40e-01,1.60e-01,
96,2.00e+00,0.00e+00,-8.00e-02,
97,6.00e+00,1.60e-01,8.00e-02,
98,2.00e+00,0.00e+00,8.00e-02,
99,6.00e+00,2.40e-01,-8.00e-02,
100,6.00e+00,0.00e+00,8.00e-02,
101,2.00e+00,2.40e-01,-8.00e-02,
102,6.00e+00,0.00e+00,-8.00e-02,
103,2.00e+00,2.40e-01,1.60e-01,
104,4.00e+00,4.00e-01,3.20e-01,
105,8.00e+00,-2.40e-01,-1.60e-01,
106,6.00e+00,-1.60e-01,-8.00e-02,
107,1.40e+01,5.60e-01,4.00e-01,
108,1.00e+01,-8.00e-02,-8.00e-02,
109,1.80e+01,6.40e-01,4.80e-01,
110,1.60e+01,8.00e-02,8.00e-02,
111,2.60e+01,8.00e-01,7.20e-01,
112,2.40e+01,2.40e-01,1.60e-01,
113,3.60e+01,8.80e-01,8.00e-01,
114,3.20e+01,4.00e-01,2.40e-01,
115,4.40e+01,1.04e+00,9.60e-01,
116,4.20e+01,5.60e-01,4.00e-01,
117,5.20e+01,1.20e+00,1.20e+00,
118,5.20e+01,6.40e-01,6.40e-01,
119,6.20e+01,1.28e+00,1.36e+00,
120,6.20e+01,8.80e-01,8.00e-01,
121,7.20e+01,1.52e+00,1.60e+00,
122,7.00e+01,1.04e+00,1.04e+00,
123,8.20e+01,1.68e+00,1.76e+00,
124,8.00e+01,1.20e+00,1.12e+00,
125,9.20e+01,1.84e+00,1.92e+00,
126,9.00e+01,1.44e+00,1.28e+00,
127,1.02e+02,2.08e+00,2.16e+00,
128,9.80e+01,1.52e+00,1.52e+00,
129,1.10e+02,2.16e+00,2.24e+00,
130,1.08e+02,1.68e+00,1.60e+00,
131,1.18e+02,2.24e+00,2.32e+00,
132,1.14e+02,1.84e+00,1.68e+00,
133,1.22e+02,2.40e+00,2.48e+00,
134,1.20e+02,1.92e+00,2.56e+00,
135,1.28e+02,2.40e+00,1.76e+00,
136,1.22e+02,2.00e+00,2.56e+00,
137,1.30e+02,2.48e+00,1.92e+00,
138,1.26e+02,2.00e+00,2.56e+00,
139,1.32e+02,2.56e+00,1.92e+00,
140,1.32e+02,2.40e+00,2.16e+00,
141,1.26e+02,2.08e+00,2.40e+00,
142,1.30e+02,2.32e+00,2.40e+00,
143,1.26e+02,2.08e+00,2.16e+00,
144,1.26e+02,2.08e+00,2.16e+00,
145,1.28e+02,2.32e+00,2.48e+00,
146,1.26e+02,2.08e+00,2.40e+00,
147,1.28e+02,2.32e+00,2.08e+00,
148,1.28e+02,2.24e+00,2.48e+00,
149,1.22e+02,2.08e+00,2.08e+00,
150,1.22e+02,2.32e+00,2.08e+00,
151,1.28e+02,2.00e+00,2.48e+00,
152,1.22e+02,2.24e+00,2.48e+00,
153,1.24e+02,2.00e+00,2.08e+00,
154,1.24e+02,2.24e+00,2.32e+00,
155,1.22e+02,2.00e+00,2.08e+00,
156,1.24e+02,2.00e+00,2.32e+00,
157,1.22e+02,2.24e+00,2.00e+00,
158,1.24e+02,2.24e+00,2.40e+00,
159,1.18e+02,1.84e+00,2.00e+00,
160,1.24e+02,2.24e+00,2.00e+00,
161,1.18e+02,1.68e+00,2.32e+00,
162,1.22e+02,2.16e+00,1.92e+00,
163,1.16e+02,1.68e+00,2.24e+00,
164,1.20e+02,2.16e+00,2.24e+00,
165,1.14e+02,1.60e+00,1.76e+00,
166,1.18e+02,2.16e+00,2.16e+00,
167,1.10e+02,1.60e+00,1.76e+00,
168,1.16e+02,2.08e+00,1.76e+00,
169,1.10e+02,1.52e+00,2.16e+00,
170,1.14e+02,2.08e+00,2.08e+00,
171,1.06e+02,1.52e+00,1.68e+00,
172,1.12e+02,2.00e+00,2.00e+00,
173,1.04e+02,1.52e+00,1.68e+00,
174,1.10e+02,2.00e+00,1.68e+00,
175,1.02e+02,1.52e+00,2.00e+00,
176,1.06e+02,1.84e+00,1.92e+00,
177,1.00e+02,1.44e+00,1.60e+00,
178,1.02e+02,1.84e+00,1.84e+00,
179,9.60e+01,1.36e+00,1.52e+00,
180,1.00e+02,1.84e+00,1.52e+00,
181,9.40e+01,1.36e+00,1.84e+00,
182,9.80e+01,1.76e+00,1.76e+00,
183,9.00e+01,1.28e+00,1.44e+00,
184,9.40e+01,1.76e+00,1.68e+00,
185,8.80e+01,1.20e+00,1.36e+00,
186,9.20e+01,1.68e+00,1.68e+00,
187,8.40e+01,1.20e+00,1.20e+00,
188,8.80e+01,1.12e+00,1.60e+00,
189,8.20e+01,1.68e+00,1.20e+00,
190,8.60e+01,1.04e+00,1.20e+00,
191,7.80e+01,1.60e+00,1.60e+00,
192,8.20e+01,1.52e+00,1.44e+00,
193,7.40e+01,1.04e+00,1.12e+00,
194,8.00e+01,9.60e-01,1.44e+00,
195,7.00e+01,1.52e+00,1.04e+00,
196,7.60e+01,1.36e+00,1.36e+00,
197,6.80e+01,9.60e-01,1.04e+00,
198,7.20e+01,1.36e+00,1.28e+00,
199,6.40e+01,8.00e-01,9.60e-01,
200,6.80e+01,1.28e+00,1.28e+00,
201,6.20e+01,8.00e-01,8.80e-01,
202,6.60e+01,1.20e+00,1.20e+00,
203,5.80e+01,8.00e-01,8.00e-01,
204,6.20e+01,1.20e+00,1.20e+00,
205,5.40e+01,7.20e-01,7.20e-01,
206,6.00e+01,1.12e+00,1.04e+00,
207,5.20e+01,6.40e-01,5.60e-01,
208,5.60e+01,1.04e+00,9.60e-01,
209,4.80e+01,5.60e-01,5.60e-01,
210,5.20e+01,9.60e-01,6.40e-01,
211,4.40e+01,5.60e-01,9.60e-01,
212,4.80e+01,8.80e-01,9.60e-01,
213,4.20e+01,4.80e-01,4.80e-01,
214,4.60e+01,8.80e-01,8.80e-01,
215,3.80e+01,4.00e-01,4.00e-01,
216,4.40e+01,8.00e-01,8.00e-01,
217,3.40e+01,4.00e-01,4.00e-01,
218,3.80e+01,3.20e-01,8.00e-01,
219,3.20e+01,8.00e-01,3.20e-01,
220,3.60e+01,7.20e-01,3.20e-01,
221,3.00e+01,2.40e-01,7.20e-01,
222,3.40e+01,7.20e-01,6.40e-01,
223,2.60e+01,2.40e-01,2.40e-01,
224,3.20e+01,6.40e-01,5.60e-01,
225,2.40e+01,1.60e-01,2.40e-01,
226,2.80e+01,1.60e-01,4.80e-01,
227,2.20e+01,6.40e-01,1.60e-01,
228,2.60e+01,5.60e-01,4.80e-01,
229,2.00e+01,8.00e-02,1.60e-01,
230,2.40e+01,4.80e-01,1.60e-01,
231,1.60e+01,8.00e-02,4.80e-01,
232,2.20e+01,4.80e-01,4.00e-01,
233,1.40e+01,8.00e-02,8.00e-02,
234,1.80e+01,4.00e-01,4.00e-01,
235,1.20e+01,8.00e-02,0.00e+00,
236,1.60e+01,4.00e-01,3.20e-01,
237,1.00e+01,0.00e+00,0.00e+00,
238,1.40e+01,3.20e-01,3.20e-01,
239,8.00e+00,-1.60e-01,0.00e+00,
240,1.20e+01,3.20e-01,3.20e-01,
241,6.00e+00,-1.60e-01,-8.00e-02,
242,1.20e+01,3.20e-01,3.20e-01,
243,6.00e+00,-1.60e-01,-8.00e-02,
244,8.00e+00,3.20e-01,2.40e-01,
245,4.00e+00,-1.60e-01,-8.00e-02,
246,4.00e+00,2.40e-01,2.40e-01,
247,8.00e+00,-1.60e-01,-8.00e-02,
248,8.00e+00,2.40e-01,-8.00e-02,
249,2.00e+00,-8.00e-02,2.40e-01,
250,2.00e+00,2.40e-01,-8.00e-02,
251,6.00e+00,-1.60e-01,2.40e-01,
252,2.00e+00,0.00e+00,-8.00e-02,
253,6.00e+00,2.40e-01,8.00e-02,
254,6.00e+00,-1.60e-01,2.40e-01,
255,2.00e+00,2.40e-01,-8.00e-02,
256,6.00e+00,0.00e+00,-8.00e-02,
257,2.00e+00,1.60e-01,8.00e-02,
258,2.00e+00,0.00e+00,-8.00e-02,
259,6.00e+00,2.40e-01,8.00e-02,
260,6.00e+00,0.00e+00,8.00e-02,
261,2.00e+00,2.40e-01,-8.00e-02,
262,6.00e+00,0.00e+00,8.00e-02,
263,2.00e+00,2.40e-01,-8.00e-02,
264,4.00e+00,-1.60e-01,-2.40e-01,
265,8.00e+00,4.80e-01,4.00e-01,
266,6.00e+00,-8.00e-02,-1.60e-01,
267,1.40e+01,6.40e-01,4.80e-01,
268,1.00e+01,0.00e+00,-8.00e-02,
269,1.80e+01,7.20e-01,6.40e-01,
270,1.60e+01,8.00e-02,8.00e-02,
271,2.80e+01,8.80e-01,7.20e-01,
272,2.40e+01,1.60e-01,2.40e-01,
273,3.60e+01,1.04e+00,8.80e-01,
274,3.20e+01,3.20e-01,4.00e-01,
275,4.40e+01,1.20e+00,1.12e+00,
276,4.20e+01,4.80e-01,5.60e-01,
277,5.40e+01,1.36e+00,1.28e+00,
278,5.20e+01,6.40e-01,7.20e-01,
279,6.40e+01,1.52e+00,1.44e+00,
280,6.20e+01,8.80e-01,9.60e-01,
281,7.20e+01,1.68e+00,1.60e+00,
282,7.20e+01,1.04e+00,1.12e+00,
283,8.60e+01,1.76e+00,1.76e+00,
284,8.00e+01,1.20e+00,1.28e+00,
285,9.20e+01,2.00e+00,1.92e+00,
286,9.00e+01,1.44e+00,1.44e+00,
287,1.02e+02,2.16e+00,2.08e+00,
288,9.80e+01,1.52e+00,1.60e+00,
289,1.10e+02,2.24e+00,2.24e+00,
290,1.08e+02,1.68e+00,1.68e+00,
291,1.18e+02,2.40e+00,2.32e+00,
292,1.14e+02,1.68e+00,2.32e+00,
293,1.22e+02,2.48e+00,1.76e+00,
294,1.20e+02,1.84e+00,1.92e+00,
295,1.26e+02,2.48e+00,2.48e+00,
296,1.24e+02,1.92e+00,2.00e+00,
297,1.30e+02,2.56e+00,2.56e+00,
298,1.26e+02,2.00e+00,2.00e+00,
299,1.32e+02,2.56e+00,2.48e+00,
300,1.30e+02,2.08e+00,2.40e+00,
301,1.26e+02,2.40e+00,2.16e+00,
302,1.30e+02,2.32e+00,2.32e+00,
303,1.26e+02,2.08e+00,2.16e+00,
304,1.26e+02,2.24e+00,2.32e+00,
305,1.28e+02,2.00e+00,2.16e+00,
306,1.26e+02,2.24e+00,2.16e+00,
307,1.28e+02,2.08e+00,2.32e+00,
308,1.28e+02,2.24e+00,2.16e+00,
309,1.22e+02,2.08e+00,2.32e+00,
310,1.28e+02,2.24e+00,2.32e+00,
311,1.22e+02,2.00e+00,2.16e+00,
312,1.22e+02,2.24e+00,2.32e+00,
313,1.24e+02,2.00e+00,2.08e+00,
314,1.24e+02,2.24e+00,2.32e+00,
315,1.22e+02,2.00e+00,2.08e+00,
316,1.22e+02,2.24e+00,2.08e+00,
317,1.24e+02,2.00e+00,2.32e+00,
318,1.24e+02,1.84e+00,2.32e+00,
319,1.20e+02,2.32e+00,1.92e+00,
320,1.24e+02,2.24e+00,2.48e+00,
321,1.18e+02,1.84e+00,2.00e+00,
322,1.22e+02,2.24e+00,2.32e+00,
323,1.16e+02,1.76e+00,1.92e+00,
324,1.20e+02,2.24e+00,2.24e+00,
325,1.12e+02,1.60e+00,1.92e+00,
326,1.12e+02,2.16e+00,2.32e+00,
327,1.18e+02,1.76e+00,1.84e+00,
328,1.18e+02,2.16e+00,2.24e+00,
329,1.08e+02,1.60e+00,1.76e+00,
330,1.12e+02,2.08e+00,1.76e+00,
331,1.06e+02,1.60e+00,2.16e+00,
332,1.12e+02,2.08e+00,2.16e+00,
333,1.04e+02,1.52e+00,1.68e+00,
334,1.10e+02,2.00e+00,2.08e+00,
335,1.02e+02,1.52e+00,1.68e+00,
336,1.04e+02,2.00e+00,2.08e+00,
337,1.00e+02,1.44e+00,1.60e+00,
338,1.04e+02,1.92e+00,1.92e+00,
339,9.60e+01,1.44e+00,1.52e+00,
340,1.00e+02,1.84e+00,1.92e+00,
341,9.40e+01,1.36e+00,1.52e+00,
342,9.80e+01,1.76e+00,1.84e+00,
343,9.20e+01,1.36e+00,1.44e+00,
344,9.40e+01,1.76e+00,1.76e+00,
345,8.80e+01,1.28e+00,1.36e+00,
346,9.20e+01,1.68e+00,1.28e+00,
347,8.60e+01,1.12e+00,1.76e+00,
348,8.80e+01,1.60e+00,1.68e+00,
349,8.20e+01,1.12e+00,1.28e+00,
350,8.60e+01,1.60e+00,1.60e+00,
351,7.80e+01,1.04e+00,1.20e+00,
352,8.20e+01,1.52e+00,1.60e+00,
353,7.40e+01,1.04e+00,1.12e+00,
354,8.00e+01,1.36e+00,1.44e+00,
355,7.20e+01,9.60e-01,1.12e+00,
356,7.60e+01,1.36e+00,1.04e+00,
357,6.80e+01,8.80e-01,1.36e+00,
358,7.20e+01,1.28e+00,1.28e+00,
359,6.40e+01,8.80e-01,8.80e-01,
360,6.80e+01,1.28e+00,1.20e+00,
361,6.20e+01,8.00e-01,8.80e-01,
362,6.60e+01,1.20e+00,1.28e+00,
363,5.60e+01,7.20e-01,8.00e-01,
364,6.20e+01,1.20e+00,1.12e+00,
365,5.60e+01,6.40e-01,7.20e-01,
366,5.80e+01,1.12e+00,1.12e+00,
367,5.20e+01,6.40e-01,7.20e-01,
368,5.60e+01,1.12e+00,9.60e-01,
369,4.60e+01,5.60e-01,6.40e-01,
370,5.20e+01,1.04e+00,9.60e-01,
371,4.40e+01,4.80e-01,5.60e-01,
372,4.80e+01,8.80e-01,5.60e-01,
373,4.20e+01,4.80e-01,8.80e-01,
374,4.60e+01,8.80e-01,5.60e-01,
375,3.80e+01,4.00e-01,8.80e-01,
376,4.40e+01,8.00e-01,8.00e-01,
377,3.40e+01,3.20e-01,4.00e-01,
378,3.80e+01,8.00e-01,8.00e-01,
379,3.20e+01,2.40e-01,3.20e-01,
380,3.60e+01,7.20e-01,7.20e-01,
381,3.00e+01,2.40e-01,3.20e-01,
382,3.40e+01,7.20e-01,7.20e-01,
383,2.60e+01,1.60e-01,3.20e-01,
384,3.00e+01,6.40e-01,5.60e-01,
385,2.40e+01,1.60e-01,2.40e-01,
386,2.80e+01,6.40e-01,4.80e-01,
387,2.20e+01,8.00e-02,2.40e-01,
388,2.60e+01,8.00e-02,4.80e-01,
389,2.00e+01,5.60e-01,1.60e-01,
390,2.40e+01,5.60e-01,1.60e-01,
391,1.60e+01,0.00e+00,4.80e-01,
392,2.20e+01,4.00e-01,4.00e-01,
393,1.40e+01,0.00e+00,8.00e-02,
394,1.80e+01,4.00e-01,4.00e-01,
395,1.20e+01,0.00e+00,-8.00e-02,
396,1.60e+01,4.00e-01,-8.00e-02,
397,1.00e+01,-8.00e-02,4.00e-01,
398,1.40e+01,3.20e-01,3.20e-01,
399,6.00e+00,-1.60e-01,-8.00e-02,
400,1.40e+01,3.20e-01,3.20e-01,
401,6.00e+00,-1.60e-01,-8.00e-02,
402,1.20e+01,3.20e-01,-8.00e-02,
403,4.00e+00,-1.60e-01,3.20e-01,
404,8.00e+00,2.40e-01,-1.60e-01,
405,4.00e+00,-1.60e-01,3.20e-01,
406,4.00e+00,2.40e-01,2.40e-01,
407,8.00e+00,-1.60e-01,-8.00e-02,
408,8.00e+00,2.40e-01,-8.00e-02,
409,2.00e+00,-8.00e-02,2.40e-01,
410,2.00e+00,2.40e-01,-8.00e-02,
411,6.00e+00,-1.60e-01,2.40e-01,
412,2.00e+00,0.00e+00,-8.00e-02,
413,6.00e+00,2.40e-01,2.40e-01,
414,2.00e+00,2.40e-01,-8.00e-02,
415,6.00e+00,-8.00e-02,2.40e-01,
416,6.00e+00,0.00e+00,8.00e-02,
417,2.00e+00,2.40e-01,-8.00e-02,
418,2.00e+00,0.00e+00,-8.00e-02,
419,6.00e+00,1.60e-01,1.60e-01,
420,2.00e+00,0.00e+00,-8.00e-02,
421,6.00e+00,2.40e-01,1.60e-01,
422,6.00e+00,0.00e+00,-8.00e-02,
423,2.00e+00,1.60e-01,1.60e-01,
424,4.00e+00,-2.40e-01,-2.40e-01,
425,8.00e+00,4.80e-01,3.20e-01,
426,6.00e+00,-2.40e-01,-2.40e-01,
427,1.40e+01,6.40e-01,4.80e-01,
428,1.20e+01,-8.00e-02,-1.60e-01,
429,2.00e+01,8.00e-01,5.60e-01,
430,1.60e+01,0.00e+00,0.00e+00,
431,2.80e+01,8.80e-01,7.20e-01,
432,2.40e+01,1.60e-01,1.60e-01,
433,3.60e+01,9.60e-01,8.80e-01,
434,3.20e+01,2.40e-01,2.40e-01,
435,4.40e+01,1.20e+00,9.60e-01,
436,4.20e+01,4.80e-01,4.00e-01,
437,5.40e+01,1.36e+00,1.20e+00,
438,5.20e+01,6.40e-01,6.40e-01,
439,6.40e+01,1.60e+00,1.36e+00,
440,6.20e+01,8.00e-01,8.00e-01,
441,7.20e+01,1.68e+00,1.60e+00,
442,7.00e+01,1.04e+00,9.60e-01,
443,8.40e+01,1.84e+00,1.76e+00,
444,8.00e+01,1.20e+00,1.12e+00,
445,9.20e+01,2.08e+00,1.92e+00,
446,9.00e+01,1.36e+00,1.28e+00,
447,1.02e+02,2.24e+00,2.08e+00,
448,1.00e+02,1.52e+00,1.52e+00,
449,1.10e+02,2.32e+00,2.24e+00,
450,1.08e+02,1.68e+00,1.60e+00,
451,1.18e+02,2.48e+00,2.32e+00,
452,1.14e+02,1.76e+00,1.76e+00,
453,1.22e+02,2.56e+00,2.48e+00,
454,1.20e+02,1.92e+00,1.84e+00,
455,1.28e+02,2.64e+00,2.48e+00,
456,1.22e+02,1.92e+00,2.00e+00,
457,1.30e+02,2.64e+00,2.56e+00,
458,1.26e+02,1.92e+00,2.56e+00,
459,1.32e+02,2.72e+00,2.00e+00,
460,1.32e+02,2.32e+00,2.16e+00,
461,1.26e+02,2.08e+00,2.40e+00,
462,1.30e+02,2.08e+00,2.32e+00,
463,1.26e+02,2.32e+00,2.16e+00,
464,1.26e+02,2.24e+00,2.32e+00,
465,1.28e+02,2.08e+00,2.16e+00,
466,1.28e+02,2.08e+00,2.32e+00,
467,1.26e+02,2.24e+00,2.16e+00,
468,1.28e+02,2.24e+00,2.16e+00,
469,1.22e+02,2.08e+00,2.32e+00,
470,1.22e+02,2.24e+00,2.32e+00,
471,1.28e+02,2.08e+00,2.16e+00,
472,1.24e+02,2.24e+00,2.32e+00,
473,1.22e+02,2.08e+00,2.08e+00,
474,1.24e+02,2.24e+00,2.32e+00,
475,1.22e+02,2.00e+00,2.08e+00,
476,1.24e+02,2.24e+00,2.24e+00,
477,1.22e+02,2.00e+00,2.08e+00,
478,1.24e+02,2.00e+00,2.08e+00,
479,1.18e+02,2.40e+00,2.40e+00,
480,1.22e+02,1.84e+00,2.40e+00,
481,1.18e+02,2.40e+00,2.00e+00,
482,1.22e+02,2.32e+00,1.92e+00,
483,1.16e+02,1.68e+00,2.40e+00,
484,1.20e+02,2.24e+00,1.92e+00,
485,1.14e+02,1.68e+00,2.32e+00,
486,1.18e+02,2.40e+00,1.92e+00,
487,1.12e+02,1.60e+00,2.32e+00,
488,1.14e+02,2.24e+00,2.32e+00,
489,1.08e+02,1.68e+00,1.76e+00,
490,1.14e+02,1.60e+00,2.24e+00,
491,1.06e+02,2.16e+00,1.76e+00,
492,1.12e+02,2.16e+00,2.16e+00,
493,1.04e+02,1.52e+00,1.60e+00,
494,1.10e+02,2.08e+00,2.16e+00,
495,1.02e+02,1.52e+00,1.60e+00,
496,1.06e+02,2.08e+00,2.16e+00,
497,9.80e+01,1.44e+00,1.60e+00,
498,1.02e+02,2.00e+00,2.00e+00,
499,9.60e+01,1.44e+00,1.52e+00,
500,1.00e+02,1.92e+00,2.08e+00,
501,9.40e+01,1.36e+00,1.52e+00,
502,9.80e+01,1.84e+00,1.92e+00,
503,9.00e+01,1.36e+00,1.44e+00,
504,9.60e+01,1.76e+00,1.92e+00,
505,8.80e+01,1.20e+00,1.36e+00,
506,9.20e+01,1.76e+00,1.84e+00,
507,8.40e+01,1.20e+00,1.28e+00,
508,8.80e+01,1.68e+00,1.76e+00,
509,8.20e+01,1.12e+00,1.28e+00,
510,8.60e+01,1.60e+00,1.68e+00,
511,7.80e+01,1.04e+00,1.12e+00,
512,8.20e+01,1.04e+00,1.12e+00,
513,7.40e+01,1.60e+00,1.68e+00,
514,8.00e+01,1.52e+00,1.12e+00,
515,7.20e+01,9.60e-01,1.60e+00,
516,7.60e+01,1.44e+00,1.44e+00,
517,6.80e+01,8.80e-01,1.04e+00,
518,7.20e+01,1.36e+00,1.04e+00,
519,6.40e+01,8.00e-01,1.36e+00,
520,6.80e+01,1.28e+00,1.36e+00,
521,6.20e+01,7.20e-01,8.80e-01,
522,6.60e+01,1.20e+00,8.80e-01,
523,5.80e+01,7.20e-01,1.28e+00,
524,6.20e+01,1.20e+00,8.00e-01,
525,5.40e+01,7.20e-01,1.20e+00,
526,5.80e+01,1.12e+00,1.12e+00,
527,5.20e+01,5.60e-01,7.20e-01,
528,5.60e+01,1.12e+00,1.12e+00,
529,4.60e+01,5.60e-01,6.40e-01,
530,5.40e+01,5.60e-01,9.60e-01,
531,4.40e+01,1.04e+00,6.40e-01,
532,4.80e+01,8.80e-01,9.60e-01,
533,4.20e+01,4.80e-01,5.60e-01,
534,4.60e+01,8.80e-01,9.60e-01,
535,3.80e+01,3.20e-01,4.80e-01,
536,4.40e+01,8.00e-01,8.80e-01,
537,3.40e+01,3.20e-01,4.00e-01,
538,3.80e+01,8.00e-01,3.20e-01,
539,3.20e+01,3.20e-01,8.80e-01,
540,3.60e+01,7.20e-01,3.20e-01,
541,3.00e+01,2.40e-01,7.20e-01,
542,3.40e+01,7.20e-01,7.20e-01,
543,2.80e+01,2.40e-01,2.40e-01,
544,3.00e+01,6.40e-01,5.60e-01,
545,2.40e+01,1.60e-01,2.40e-01,
546,2.80e+01,6.40e-01,2.40e-01,
547,2.20e+01,8.00e-02,5.60e-01,
548,2.60e+01,8.00e-02,5.60e-01,
549,2.00e+01,5.60e-01,1.60e-01,
550,2.40e+01,4.80e-01,1.60e-01,
551,1.60e+01,0.00e+00,4.80e-01,
552,2.20e+01,4.00e-01,4.00e-01,
553,1.40e+01,0.00e+00,8.00e-02,
554,1.80e+01,0.00e+00,4.00e-01,
555,1.20e+01,4.00e-01,0.00e+00,
556,1.60e+01,3.20e-01,4.00e-01,
557,1.00e+01,-1.60e-01,0.00e+00,
558,1.40e+01,3.20e-01,3.20e-01,
559,6.00e+00,-8.00e-02,-8.00e-02,
560,1.40e+01,3.20e-01,3.20e-01,
561,6.00e+00,-1.60e-01,-8.00e-02,
562,1.20e+01,3.20e-01,-8.00e-02,
563,4.00e+00,-1.60e-01,2.40e-01,
564,8.00e+00,2.40e-01,-1.60e-01,
565,4.00e+00,-1.60e-01,3.20e-01,
566,4.00e+00,2.40e-01,2.40e-01,
567,8.00e+00,-8.00e-02,-8.00e-02,
568,8.00e+00,2.40e-01,2.40e-01,
569,2.00e+00,-1.60e-01,-1.60e-01,
570,6.00e+00,2.40e-01,2.40e-01,
571,2.00e+00,-1.60e-01,-1.60e-01,
572,2.00e+00,-8.00e-02,-1.60e-01,
573,6.00e+00,1.60e-01,2.40e-01,
574,2.00e+00,-1.60e-01,8.00e-02,
575,6.00e+00,2.40e-01,-1.60e-01,
576,2.00e+00,1.60e-01,8.00e-02,
577,6.00e+00,0.00e+00,-1.60e-01,
578,6.00e+00,0.00e+00,-8.00e-02,
579,2.00e+00,2.40e-01,8.00e-02,
580,2.00e+00,0.00e+00,-1.60e-01,
581,6.00e+00,2.40e-01,1.60e-01,
582,6.00e+00,0.00e+00,-2.40e-01,
583,2.00e+00,2.40e-01,2.40e-01,
584,4.00e+00,0.00e+00,-1.60e-01,
585,8.00e+00,4.80e-01,3.20e-01,
586,6.00e+00,8.00e-02,4.00e-01,
587,1.40e+01,5.60e-01,-8.00e-02,
588,1.20e+01,1.60e-01,8.00e-02,
589,2.00e+01,7.20e-01,6.40e-01,
590,1.60e+01,1.60e-01,1.60e-01,
591,2.80e+01,8.80e-01,7.20e-01,
592,2.40e+01,2.40e-01,3.20e-01,
593,3.60e+01,1.04e+00,8.80e-01,
594,3.20e+01,1.12e+00,4.00e-01,
595,4.40e+01,5.60e-01,1.04e+00,
596,4.20e+01,4.80e-01,6.40e-01,
597,5.40e+01,1.28e+00,1.28e+00,
598,5.20e+01,6.40e-01,1.36e+00,
599,6.20e+01,1.52e+00,7.20e-01,
600,6.20e+01,7.20e-01,9.60e-01,
601,7.40e+01,1.68e+00,1.60e+00,
602,7.20e+01,9.60e-01,1.12e+00,
603,8.60e+01,1.84e+00,1.76e+00,
604,8.20e+01,2.00e+00,1.20e+00,
605,9.20e+01,1.12e+00,1.92e+00,
606,9.00e+01,1.28e+00,1.44e+00,
607,1.02e+02,2.16e+00,2.08e+00,
608,1.00e+02,1.52e+00,1.52e+00,
609,1.12e+02,2.40e+00,2.24e+00,
610,1.08e+02,1.52e+00,1.68e+00,
611,1.18e+02,2.48e+00,2.32e+00,
612,1.16e+02,1.60e+00,1.76e+00,
613,1.22e+02,2.56e+00,2.40e+00,
614,1.20e+02,1.84e+00,1.92e+00,
615,1.28e+02,2.64e+00,2.48e+00,
616,1.22e+02,1.84e+00,1.92e+00,
617,1.30e+02,2.64e+00,2.56e+00,
618,1.26e+02,1.92e+00,1.92e+00,
619,1.32e+02,2.72e+00,2.56e+00,
620,1.30e+02,2.32e+00,2.48e+00,
621,1.26e+02,2.08e+00,2.16e+00,
