release/v0.0/electrical/data/driver/125Hz.csv

X,CH1,CH2,CH3,Start,Increment,
Sequence,Volt,Volt,Volt,5.320000e-02,5.000000e-05
0,4.00e+00,2.40e-01,4.00e-01,
1,8.00e+00,6.40e-01,5.60e-01,
2,6.00e+00,4.00e-01,4.00e-01,
3,1.00e+01,6.40e-01,6.40e-01,
4,8.00e+00,7.20e-01,4.80e-01,
5,1.40e+01,4.80e-01,7.20e-01,
6,8.00e+00,5.60e-01,6.40e-01,
7,1.60e+01,8.80e-01,8.80e-01,
8,1.40e+01,6.40e-01,8.00e-01,
9,1.80e+01,8.80e-01,9.60e-01,
10,1.40e+01,7.20e-01,8.00e-01,
11,2.00e+01,1.04e+00,1.04e+00,
12,1.80e+01,8.80e-01,9.60e-01,
13,2.60e+01,1.20e+00,1.20e+00,
14,2.20e+01,9.60e-01,1.12e+00,
15,2.80e+01,1.28e+00,1.28e+00,
16,2.60e+01,1.12e+00,1.20e+00,
17,3.40e+01,1.44e+00,1.44e+00,
18,3.00e+01,1.20e+00,1.36e+00,
19,3.80e+01,1.60e+00,1.52e+00,
20,3.60e+01,1.36e+00,1.52e+00,
21,4.20e+01,1.68e+00,1.68e+00,
22,4.00e+01,1.44e+00,1.60e+00,
23,4.80e+01,1.76e+00,1.84e+00,
24,4.40e+01,1.60e+00,1.76e+00,
25,5.20e+01,1.92e+00,1.92e+00,
26,5.00e+01,1.76e+00,1.76e+00,
27,5.80e+01,2.00e+00,2.08e+00,
28,5.60e+01,1.84e+00,2.00e+00,
29,6.20e+01,2.16e+00,2.24e+00,
30,6.00e+01,1.92e+00,2.08e+00,
31,6.80e+01,2.24e+00,2.32e+00,
32,6.60e+01,2.08e+00,2.24e+00,
33,7.20e+01,2.48e+00,2.40e+00,
34,7.00e+01,2.24e+00,2.32e+00,
35,7.80e+01,2.56e+00,2.56e+00,
36,7.60e+01,2.32e+00,2.48e+00,
37,8.40e+01,2.64e+00,2.72e+00,
38,8.00e+01,2.40e+00,2.56e+00,
39,8.80e+01,2.72e+00,2.72e+00,
40,8.60e+01,2.56e+00,2.64e+00,
41,9.20e+01,2.88e+00,2.88e+00,
42,9.00e+01,2.64e+00,2.88e+00,
43,9.60e+01,2.96e+00,2.72e+00,
44,9.60e+01,2.72e+00,2.88e+00,
45,1.02e+02,3.04e+00,3.04e+00,
46,9.80e+01,2.80e+00,2.96e+00,
47,1.04e+02,3.12e+00,3.12e+00,
48,1.02e+02,2.88e+00,3.04e+00,
49,1.06e+02,3.12e+00,3.20e+00,
50,1.04e+02,2.96e+00,3.20e+00,
51,1.10e+02,3.28e+00,3.04e+00,
52,1.08e+02,2.96e+00,3.12e+00,
53,1.14e+02,3.20e+00,3.28e+00,
54,1.10e+02,3.04e+00,3.28e+00,
55,1.14e+02,3.28e+00,3.12e+00,
56,1.12e+02,3.04e+00,3.28e+00,
57,1.16e+02,3.36e+00,3.20e+00,
58,1.12e+02,3.04e+00,3.28e+00,
59,1.16e+02,3.36e+00,3.20e+00,
60,1.16e+02,3.36e+00,3.20e+00,
61,1.12e+02,3.20e+00,3.36e+00,
62,1.16e+02,3.20e+00,3.28e+00,
63,1.12e+02,3.28e+00,3.20e+00,
64,1.12e+02,3.04e+00,3.20e+00,
65,1.14e+02,3.28e+00,3.28e+00,
66,1.14e+02,3.20e+00,3.28e+00,
67,1.12e+02,3.04e+00,3.20e+00,
68,1.14e+02,3.20e+00,3.28e+00,
69,1.10e+02,3.04e+00,3.20e+00,
70,1.14e+02,3.04e+00,3.28e+00,
71,1.10e+02,3.20e+00,3.12e+00,
72,1.12e+02,3.12e+00,3.12e+00,
73,1.08e+02,2.96e+00,3.20e+00,
74,1.12e+02,3.12e+00,3.20e+00,
75,1.04e+02,2.88e+00,3.04e+00,
76,1.06e+02,3.04e+00,3.12e+00,
77,1.02e+02,2.88e+00,2.96e+00,
78,1.04e+02,3.04e+00,3.12e+00,
79,1.00e+02,2.80e+00,2.96e+00,
80,1.02e+02,2.96e+00,2.96e+00,
81,9.60e+01,2.56e+00,2.80e+00,
82,9.60e+01,2.88e+00,2.88e+00,
83,9.00e+01,2.64e+00,2.72e+00,
84,9.40e+01,2.72e+00,2.80e+00,
85,8.60e+01,2.48e+00,2.64e+00,
86,9.00e+01,2.64e+00,2.72e+00,
87,8.20e+01,2.32e+00,2.56e+00,
88,8.40e+01,2.56e+00,2.64e+00,
89,7.60e+01,2.32e+00,2.40e+00,
90,8.00e+01,2.48e+00,2.48e+00,
91,7.00e+01,2.24e+00,2.24e+00,
92,7.40e+01,2.32e+00,2.32e+00,
93,6.60e+01,2.00e+00,2.16e+00,
94,7.00e+01,2.24e+00,2.24e+00,
95,6.00e+01,1.92e+00,2.08e+00,
96,6.40e+01,2.16e+00,2.16e+00,
97,5.60e+01,1.84e+00,1.92e+00,
98,6.00e+01,2.00e+00,2.08e+00,
99,5.00e+01,1.68e+00,1.76e+00,
100,5.20e+01,1.84e+00,1.84e+00,
101,4.60e+01,1.52e+00,1.60e+00,
102,4.80e+01,1.76e+00,1.76e+00,
103,4.20e+01,1.44e+00,1.60e+00,
104,4.60e+01,1.68e+00,1.68e+00,
105,3.80e+01,1.36e+00,1.36e+00,
106,4.00e+01,1.52e+00,1.52e+00,
107,3.20e+01,1.28e+00,1.28e+00,
108,3.60e+01,1.36e+00,1.44e+00,
109,2.80e+01,1.04e+00,1.20e+00,
110,3.00e+01,1.28e+00,1.28e+00,
111,2.40e+01,9.60e-01,1.04e+00,
112,2.80e+01,1.12e+00,1.20e+00,
113,2.00e+01,8.80e-01,9.60e-01,
114,2.40e+01,7.20e-01,1.04e+00,
115,1.60e+01,1.04e+00,8.00e-01,
116,2.00e+01,8.80e-01,8.80e-01,
117,1.40e+01,5.60e-01,7.20e-01,
118,1.60e+01,8.00e-01,6.40e-01,
119,1.20e+01,5.60e-01,8.00e-01,
120,8.00e+00,7.20e-01,7.20e-01,
121,1.40e+01,4.00e-01,4.80e-01,
122,1.00e+01,6.40e-01,5.60e-01,
123,6.00e+00,3.20e-01,4.00e-01,
124,8.00e+00,2.40e-01,4.80e-01,
125,4.00e+00,5.60e-01,3.20e-01,
126,6.00e+00,4.00e-01,4.80e-01,
127,2.00e+00,1.60e-01,2.40e-01,
128,6.00e+00,3.20e-01,2.40e-01,
129,2.00e+00,8.00e-02,4.00e-01,
130,4.00e+00,2.40e-01,3.20e-01,
131,0.00e+00,0.00e+00,8.00e-02,
132,4.00e+00,2.40e-01,1.60e-01,
133,-2.00e+00,0.00e+00,8.00e-02,
134,4.00e+00,0.00e+00,1.60e-01,
135,-2.00e+00,2.40e-01,0.00e+00,
136,0.00e+00,1.60e-01,1.60e-01,
137,-2.00e+00,-8.00e-02,0.00e+00,
138,0.00e+00,1.60e-01,8.00e-02,
139,-2.00e+00,0.00e+00,0.00e+00,
140,0.00e+00,8.00e-02,8.00e-02,
141,-2.00e+00,-8.00e-02,0.00e+00,
142,0.00e+00,0.00e+00,8.00e-02,
143,-2.00e+00,1.60e-01,0.00e+00,
144,0.00e+00,1.60e-01,0.00e+00,
145,-2.00e+00,0.00e+00,8.00e-02,
146,0.00e+00,1.60e-01,8.00e-02,
147,-2.00e+00,0.00e+00,0.00e+00,
148,0.00e+00,1.60e-01,8.00e-02,
149,-2.00e+00,8.00e-02,0.00e+00,
150,0.00e+00,8.00e-02,1.60e-01,
151,-2.00e+00,1.60e-01,0.00e+00,
152,0.00e+00,0.00e+00,8.00e-02,
153,4.00e+00,3.20e-01,3.20e-01,
154,2.00e+00,1.60e-01,1.60e-01,
155,4.00e+00,2.40e-01,3.20e-01,
156,2.00e+00,8.00e-02,2.40e-01,
157,6.00e+00,4.00e-01,4.00e-01,
158,2.00e+00,1.60e-01,3.20e-01,
159,8.00e+00,4.80e-01,4.80e-01,
160,4.00e+00,2.40e-01,4.00e-01,
161,8.00e+00,5.60e-01,5.60e-01,
162,6.00e+00,4.00e-01,5.60e-01,
163,1.00e+01,6.40e-01,4.80e-01,
164,8.00e+00,4.00e-01,4.80e-01,
165,1.40e+01,7.20e-01,7.20e-01,
166,1.20e+01,5.60e-01,6.40e-01,
167,1.60e+01,8.80e-01,8.80e-01,
168,1.40e+01,6.40e-01,7.20e-01,
169,1.80e+01,9.60e-01,9.60e-01,
170,1.40e+01,7.20e-01,8.80e-01,
171,2.00e+01,1.12e+00,1.04e+00,
172,1.80e+01,8.00e-01,9.60e-01,
173,2.60e+01,1.20e+00,1.20e+00,
174,2.20e+01,9.60e-01,1.12e+00,
175,3.00e+01,1.28e+00,1.36e+00,
176,2.80e+01,1.12e+00,1.20e+00,
177,3.40e+01,1.52e+00,1.44e+00,
178,3.20e+01,1.20e+00,1.36e+00,
179,3.80e+01,1.60e+00,1.52e+00,
180,3.60e+01,1.36e+00,1.52e+00,
181,4.20e+01,1.68e+00,1.76e+00,
182,4.00e+01,1.44e+00,1.60e+00,
183,4.80e+01,1.76e+00,1.84e+00,
184,4.60e+01,1.52e+00,1.76e+00,
185,5.20e+01,1.92e+00,1.92e+00,
186,5.00e+01,2.00e+00,1.76e+00,
187,5.80e+01,1.68e+00,2.08e+00,
188,5.60e+01,1.76e+00,2.00e+00,
189,6.20e+01,2.16e+00,2.24e+00,
190,6.00e+01,1.92e+00,2.16e+00,
191,6.80e+01,2.24e+00,2.32e+00,
192,6.60e+01,2.08e+00,2.16e+00,
193,7.20e+01,2.40e+00,2.40e+00,
194,7.00e+01,2.24e+00,2.32e+00,
195,8.00e+01,2.56e+00,2.56e+00,
196,7.60e+01,2.32e+00,2.48e+00,
197,8.40e+01,2.64e+00,2.72e+00,
198,8.00e+01,2.48e+00,2.56e+00,
199,9.00e+01,2.72e+00,2.80e+00,
200,8.60e+01,2.48e+00,2.64e+00,
201,9.20e+01,2.88e+00,2.88e+00,
202,9.00e+01,2.64e+00,2.88e+00,
203,9.60e+01,2.88e+00,2.72e+00,
204,9.60e+01,2.64e+00,2.80e+00,
205,1.02e+02,3.04e+00,3.04e+00,
206,9.80e+01,2.80e+00,2.96e+00,
207,1.04e+02,3.04e+00,3.12e+00,
208,1.02e+02,2.88e+00,3.04e+00,
209,1.06e+02,3.12e+00,3.20e+00,
210,1.06e+02,3.12e+00,3.20e+00,
211,1.10e+02,2.96e+00,3.04e+00,
212,1.08e+02,2.96e+00,3.12e+00,
213,1.14e+02,3.20e+00,3.28e+00,
214,1.10e+02,3.04e+00,3.28e+00,
215,1.14e+02,3.28e+00,3.12e+00,
216,1.12e+02,3.04e+00,3.28e+00,
217,1.16e+02,3.36e+00,3.20e+00,
218,1.12e+02,3.12e+00,3.36e+00,
219,1.20e+02,3.36e+00,3.20e+00,
220,1.16e+02,3.36e+00,3.20e+00,
221,1.12e+02,3.04e+00,3.44e+00,
222,1.16e+02,3.20e+00,3.28e+00,
223,1.12e+02,3.04e+00,3.20e+00,
224,1.12e+02,3.28e+00,3.28e+00,
225,1.14e+02,3.04e+00,3.20e+00,
226,1.12e+02,3.04e+00,3.28e+00,
227,1.14e+02,3.28e+00,3.20e+00,
228,1.14e+02,3.04e+00,3.20e+00,
229,1.10e+02,3.20e+00,3.28e+00,
230,1.10e+02,3.04e+00,3.28e+00,
231,1.14e+02,3.20e+00,3.12e+00,
232,1.12e+02,3.12e+00,3.20e+00,
233,1.08e+02,2.96e+00,3.12e+00,
234,1.12e+02,3.12e+00,3.20e+00,
235,1.04e+02,2.88e+00,3.04e+00,
236,1.08e+02,3.12e+00,3.12e+00,
237,1.02e+02,2.88e+00,2.96e+00,
238,1.04e+02,3.04e+00,3.12e+00,
239,9.80e+01,2.80e+00,2.88e+00,
240,1.02e+02,2.96e+00,3.04e+00,
241,9.60e+01,2.72e+00,2.88e+00,
242,9.80e+01,2.88e+00,2.88e+00,
243,9.00e+01,2.64e+00,2.72e+00,
244,9.40e+01,2.72e+00,2.80e+00,
245,8.60e+01,2.48e+00,2.64e+00,
246,9.00e+01,2.64e+00,2.72e+00,
247,8.20e+01,2.32e+00,2.56e+00,
248,8.40e+01,2.56e+00,2.64e+00,
249,7.80e+01,2.32e+00,2.40e+00,
250,8.00e+01,2.48e+00,2.48e+00,
251,7.00e+01,2.08e+00,2.24e+00,
252,7.40e+01,2.40e+00,2.32e+00,
253,6.60e+01,2.08e+00,2.16e+00,
254,7.00e+01,2.24e+00,2.24e+00,
255,6.00e+01,1.92e+00,2.08e+00,
256,6.40e+01,2.16e+00,2.16e+00,
257,5.60e+01,1.84e+00,1.92e+00,
258,6.00e+01,2.00e+00,2.00e+00,
259,5.20e+01,1.68e+00,1.76e+00,
260,5.20e+01,1.84e+00,1.84e+00,
261,4.60e+01,1.60e+00,1.68e+00,
262,4.80e+01,1.76e+00,1.76e+00,
263,4.20e+01,1.52e+00,1.60e+00,
264,4.60e+01,1.60e+00,1.68e+00,
265,3.80e+01,1.36e+00,1.44e+00,
266,4.00e+01,1.52e+00,1.52e+00,
267,3.40e+01,1.12e+00,1.28e+00,
268,3.60e+01,1.36e+00,1.44e+00,
269,2.80e+01,1.12e+00,1.20e+00,
270,3.00e+01,1.28e+00,1.28e+00,
271,2.40e+01,9.60e-01,1.04e+00,
272,2.80e+01,1.12e+00,1.20e+00,
273,2.20e+01,8.80e-01,8.80e-01,
274,2.40e+01,1.04e+00,1.04e+00,
275,1.60e+01,7.20e-01,8.00e-01,
276,2.00e+01,8.80e-01,8.80e-01,
277,1.20e+01,5.60e-01,7.20e-01,
278,1.60e+01,8.00e-01,8.00e-01,
279,1.00e+01,4.80e-01,6.40e-01,
280,1.40e+01,7.20e-01,4.80e-01,
281,8.00e+00,4.00e-01,7.20e-01,
282,1.00e+01,4.00e-01,5.60e-01,
283,6.00e+00,6.40e-01,4.00e-01,
284,8.00e+00,4.80e-01,4.80e-01,
285,4.00e+00,2.40e-01,3.20e-01,
286,6.00e+00,4.00e-01,4.00e-01,
287,2.00e+00,1.60e-01,2.40e-01,
288,2.00e+00,3.20e-01,4.00e-01,
289,6.00e+00,8.00e-02,1.60e-01,
290,4.00e+00,2.40e-01,3.20e-01,
291,0.00e+00,0.00e+00,8.00e-02,
292,0.00e+00,2.40e-01,1.60e-01,
293,4.00e+00,0.00e+00,8.00e-02,
294,-2.00e+00,1.60e-01,1.60e-01,
295,2.00e+00,-8.00e-02,0.00e+00,
296,0.00e+00,0.00e+00,8.00e-02,
297,-2.00e+00,1.60e-01,-8.00e-02,
298,0.00e+00,-8.00e-02,8.00e-02,
299,-2.00e+00,1.60e-01,0.00e+00,
300,0.00e+00,0.00e+00,8.00e-02,
301,-2.00e+00,1.60e-01,-8.00e-02,
302,0.00e+00,0.00e+00,8.00e-02,
303,-2.00e+00,1.60e-01,0.00e+00,
304,0.00e+00,0.00e+00,8.00e-02,
305,-2.00e+00,1.60e-01,0.00e+00,
306,0.00e+00,0.00e+00,8.00e-02,
307,-2.00e+00,1.60e-01,0.00e+00,
308,-2.00e+00,1.60e-01,0.00e+00,
309,2.00e+00,0.00e+00,1.60e-01,
310,2.00e+00,8.00e-02,1.60e-01,
311,-2.00e+00,1.60e-01,0.00e+00,
312,4.00e+00,8.00e-02,8.00e-02,
313,-2.00e+00,3.20e-01,2.40e-01,
314,2.00e+00,3.20e-01,8.00e-02,
315,4.00e+00,1.60e-01,3.20e-01,
316,2.00e+00,1.60e-01,2.40e-01,
317,6.00e+00,4.00e-01,4.00e-01,
318,6.00e+00,2.40e-01,3.20e-01,
319,4.00e+00,4.00e-01,4.80e-01,
320,4.00e+00,2.40e-01,3.20e-01,
321,8.00e+00,6.40e-01,5.60e-01,
322,6.00e+00,4.80e-01,4.00e-01,
323,1.00e+01,7.20e-01,6.40e-01,
324,8.00e+00,7.20e-01,4.80e-01,
325,1.40e+01,4.80e-01,7.20e-01,
326,1.00e+01,5.60e-01,6.40e-01,
327,1.60e+01,8.80e-01,8.80e-01,
328,1.40e+01,6.40e-01,8.00e-01,
329,1.80e+01,8.80e-01,9.60e-01,
330,1.60e+01,7.20e-01,8.80e-01,
331,2.00e+01,1.12e+00,1.04e+00,
332,1.80e+01,8.80e-01,9.60e-01,
333,2.60e+01,1.20e+00,1.20e+00,
334,2.20e+01,9.60e-01,1.12e+00,
335,3.00e+01,1.28e+00,1.36e+00,
336,2.80e+01,1.12e+00,1.20e+00,
337,3.60e+01,1.44e+00,1.44e+00,
338,3.00e+01,1.52e+00,1.36e+00,
339,3.80e+01,1.20e+00,1.52e+00,
340,3.60e+01,1.36e+00,1.52e+00,
341,4.20e+01,1.68e+00,1.68e+00,
342,4.00e+01,1.44e+00,1.60e+00,
343,4.80e+01,1.76e+00,1.84e+00,
344,4.60e+01,1.60e+00,1.68e+00,
345,5.20e+01,1.92e+00,1.92e+00,
346,5.20e+01,1.76e+00,1.84e+00,
347,5.80e+01,2.08e+00,2.08e+00,
348,5.60e+01,1.84e+00,2.00e+00,
349,6.20e+01,2.16e+00,2.24e+00,
350,6.00e+01,1.92e+00,2.08e+00,
351,6.80e+01,2.24e+00,2.32e+00,
352,6.60e+01,2.08e+00,2.16e+00,
353,7.40e+01,2.40e+00,2.40e+00,
354,7.00e+01,2.16e+00,2.32e+00,
355,8.00e+01,2.56e+00,2.56e+00,
356,7.60e+01,2.32e+00,2.48e+00,
357,8.40e+01,2.64e+00,2.72e+00,
358,8.00e+01,2.40e+00,2.56e+00,
359,8.80e+01,2.72e+00,2.80e+00,
360,8.60e+01,2.48e+00,2.64e+00,
361,9.20e+01,2.88e+00,2.88e+00,
362,9.00e+01,2.56e+00,2.72e+00,
363,9.60e+01,2.96e+00,2.96e+00,
364,9.60e+01,2.72e+00,2.88e+00,
365,1.02e+02,3.04e+00,3.04e+00,
366,9.80e+01,2.80e+00,2.96e+00,
367,1.04e+02,3.04e+00,3.12e+00,
368,1.02e+02,2.88e+00,3.04e+00,
369,1.06e+02,3.12e+00,3.20e+00,
370,1.04e+02,2.96e+00,3.20e+00,
371,1.10e+02,3.20e+00,3.04e+00,
372,1.08e+02,2.96e+00,3.12e+00,
373,1.12e+02,3.28e+00,3.28e+00,
374,1.10e+02,3.04e+00,3.28e+00,
375,1.14e+02,3.20e+00,3.12e+00,
376,1.12e+02,3.04e+00,3.28e+00,
377,1.16e+02,3.36e+00,3.20e+00,
378,1.12e+02,3.28e+00,3.20e+00,
379,1.16e+02,3.04e+00,3.36e+00,
380,1.16e+02,3.28e+00,3.36e+00,
381,1.12e+02,3.12e+00,3.20e+00,
382,1.16e+02,3.28e+00,3.20e+00,
383,1.12e+02,3.04e+00,3.36e+00,
384,1.12e+02,3.04e+00,3.36e+00,
385,1.14e+02,3.28e+00,3.20e+00,
386,1.14e+02,3.20e+00,3.28e+00,
387,1.12e+02,3.04e+00,3.20e+00,
388,1.14e+02,3.20e+00,3.28e+00,
389,1.10e+02,3.04e+00,3.20e+00,
390,1.10e+02,3.12e+00,3.28e+00,
391,1.14e+02,3.04e+00,3.12e+00,
392,1.12e+02,3.12e+00,3.20e+00,
393,1.08e+02,2.96e+00,3.12e+00,
394,1.12e+02,3.12e+00,3.20e+00,
395,1.04e+02,2.96e+00,3.04e+00,
396,1.06e+02,3.04e+00,3.04e+00,
397,1.02e+02,2.88e+00,3.12e+00,
398,1.04e+02,3.04e+00,3.04e+00,
399,1.00e+02,2.80e+00,2.96e+00,
400,1.02e+02,2.96e+00,3.04e+00,
401,9.60e+01,2.72e+00,2.80e+00,
402,9.60e+01,2.88e+00,2.88e+00,
403,9.00e+01,2.56e+00,2.72e+00,
404,9.40e+01,2.72e+00,2.80e+00,
405,8.60e+01,2.48e+00,2.64e+00,
406,9.00e+01,2.64e+00,2.72e+00,
407,8.00e+01,2.40e+00,2.56e+00,
408,8.40e+01,2.56e+00,2.64e+00,
409,7.60e+01,2.24e+00,2.40e+00,
410,8.00e+01,2.48e+00,2.48e+00,
411,7.20e+01,2.16e+00,2.24e+00,
412,7.40e+01,2.32e+00,2.32e+00,
413,6.60e+01,2.08e+00,2.16e+00,
414,7.00e+01,2.24e+00,2.24e+00,
415,6.20e+01,1.92e+00,2.08e+00,
416,6.40e+01,2.08e+00,2.16e+00,
417,5.60e+01,1.84e+00,2.00e+00,
418,6.00e+01,2.00e+00,1.92e+00,
419,5.20e+01,1.68e+00,1.76e+00,
420,5.20e+01,1.92e+00,1.84e+00,
421,4.60e+01,1.52e+00,1.68e+00,
422,4.80e+01,1.76e+00,1.76e+00,
423,4.20e+01,1.44e+00,1.60e+00,
424,4.60e+01,1.60e+00,1.68e+00,
425,3.60e+01,1.36e+00,1.52e+00,
426,4.00e+01,1.52e+00,1.52e+00,
427,3.40e+01,1.20e+00,1.28e+00,
428,3.60e+01,1.44e+00,1.36e+00,
429,2.60e+01,9.60e-01,1.20e+00,
430,3.00e+01,1.28e+00,1.28e+00,
431,2.40e+01,9.60e-01,1.12e+00,
432,2.80e+01,1.12e+00,1.20e+00,
433,2.00e+01,8.80e-01,9.60e-01,
434,2.40e+01,1.04e+00,1.04e+00,
435,1.60e+01,6.40e-01,8.00e-01,
436,2.00e+01,9.60e-01,8.80e-01,
437,1.40e+01,5.60e-01,7.20e-01,
438,1.60e+01,8.00e-01,8.00e-01,
439,1.00e+01,4.80e-01,6.40e-01,
440,1.40e+01,7.20e-01,6.40e-01,
441,6.00e+00,4.00e-01,4.80e-01,
442,1.00e+01,3.20e-01,5.60e-01,
443,4.00e+00,6.40e-01,4.00e-01,
444,8.00e+00,5.60e-01,4.80e-01,
445,4.00e+00,2.40e-01,3.20e-01,
446,6.00e+00,4.00e-01,4.00e-01,
447,2.00e+00,1.60e-01,2.40e-01,
448,6.00e+00,3.20e-01,3.20e-01,
449,2.00e+00,8.00e-02,1.60e-01,
450,4.00e+00,3.20e-01,3.20e-01,
451,0.00e+00,0.00e+00,8.00e-02,
452,4.00e+00,2.40e-01,1.60e-01,
453,-2.00e+00,0.00e+00,0.00e+00,
454,4.00e+00,0.00e+00,1.60e-01,
455,-2.00e+00,2.40e-01,0.00e+00,
456,0.00e+00,1.60e-01,1.60e-01,
457,-2.00e+00,-8.00e-02,-8.00e-02,
458,0.00e+00,0.00e+00,8.00e-02,
459,-2.00e+00,1.60e-01,0.00e+00,
460,0.00e+00,0.00e+00,-8.00e-02,
461,-2.00e+00,1.60e-01,8.00e-02,
462,-2.00e+00,0.00e+00,8.00e-02,
463,0.00e+00,1.60e-01,0.00e+00,
464,0.00e+00,8.00e-02,0.00e+00,
465,-2.00e+00,1.60e-01,8.00e-02,
466,0.00e+00,8.00e-02,8.00e-02,
467,-2.00e+00,1.60e-01,0.00e+00,
468,0.00e+00,8.00e-02,0.00e+00,
469,-2.00e+00,1.60e-01,1.60e-01,
470,-2.00e+00,8.00e-02,1.60e-01,
471,2.00e+00,1.60e-01,0.00e+00,
472,4.00e+00,8.00e-02,8.00e-02,
473,-2.00e+00,3.20e-01,3.20e-01,
474,2.00e+00,3.20e-01,1.60e-01,
475,4.00e+00,1.60e-01,3.20e-01,
476,2.00e+00,8.00e-02,2.40e-01,
477,6.00e+00,4.00e-01,4.00e-01,
478,6.00e+00,2.40e-01,3.20e-01,
479,4.00e+00,4.00e-01,4.80e-01,
480,4.00e+00,2.40e-01,3.20e-01,
481,8.00e+00,5.60e-01,5.60e-01,
482,6.00e+00,4.00e-01,4.80e-01,
483,1.00e+01,7.20e-01,6.40e-01,
484,8.00e+00,4.80e-01,5.60e-01,
485,1.40e+01,8.00e-01,7.20e-01,
486,1.20e+01,5.60e-01,6.40e-01,
487,1.60e+01,8.80e-01,8.80e-01,
488,1.40e+01,6.40e-01,8.00e-01,
489,1.80e+01,1.04e+00,9.60e-01,
490,1.60e+01,1.04e+00,8.80e-01,
491,2.00e+01,8.00e-01,1.04e+00,
492,2.20e+01,8.80e-01,9.60e-01,
493,2.60e+01,1.20e+00,1.20e+00,
494,2.40e+01,9.60e-01,1.12e+00,
495,3.00e+01,1.28e+00,1.36e+00,
496,2.80e+01,1.12e+00,1.20e+00,
497,3.20e+01,1.44e+00,1.44e+00,
498,3.20e+01,1.28e+00,1.36e+00,
499,4.00e+01,1.60e+00,1.52e+00,
500,3.60e+01,1.36e+00,1.52e+00,
501,4.20e+01,1.68e+00,1.68e+00,
502,4.00e+01,1.44e+00,1.60e+00,
503,4.80e+01,1.76e+00,1.84e+00,
504,4.60e+01,1.60e+00,1.68e+00,
505,5.20e+01,2.00e+00,1.92e+00,
506,5.00e+01,1.76e+00,1.84e+00,
507,5.80e+01,2.08e+00,2.08e+00,
508,5.60e+01,1.84e+00,2.00e+00,
509,6.20e+01,2.16e+00,2.24e+00,
510,6.00e+01,1.92e+00,2.08e+00,
511,6.80e+01,2.24e+00,2.32e+00,
512,6.60e+01,2.08e+00,2.24e+00,
513,7.40e+01,2.48e+00,2.40e+00,
514,7.00e+01,2.24e+00,2.32e+00,
515,8.00e+01,2.56e+00,2.56e+00,
516,7.60e+01,2.32e+00,2.48e+00,
517,8.40e+01,2.64e+00,2.72e+00,
518,8.00e+01,2.32e+00,2.56e+00,
519,8.80e+01,2.72e+00,2.80e+00,
520,8.60e+01,2.56e+00,2.64e+00,
521,9.20e+01,2.88e+00,2.88e+00,
522,9.00e+01,2.64e+00,2.80e+00,
523,9.80e+01,2.96e+00,2.96e+00,
524,9.60e+01,2.72e+00,2.80e+00,
525,1.02e+02,3.04e+00,3.04e+00,
526,9.80e+01,2.80e+00,2.96e+00,
527,1.04e+02,3.12e+00,3.12e+00,
528,1.02e+02,2.88e+00,3.04e+00,
529,1.08e+02,3.12e+00,3.20e+00,
530,1.04e+02,3.12e+00,3.04e+00,
531,1.12e+02,2.96e+00,3.20e+00,
532,1.08e+02,2.96e+00,3.12e+00,
533,1.14e+02,3.28e+00,3.28e+00,
534,1.10e+02,2.96e+00,3.28e+00,
535,1.14e+02,3.20e+00,3.12e+00,
536,1.16e+02,3.04e+00,3.28e+00,
537,1.12e+02,3.36e+00,3.20e+00,
538,1.12e+02,3.04e+00,3.36e+00,
539,1.18e+02,3.36e+00,3.20e+00,
540,1.16e+02,3.28e+00,3.20e+00,
541,1.12e+02,3.12e+00,3.44e+00,
542,1.16e+02,3.12e+00,3.36e+00,
543,1.12e+02,3.28e+00,3.20e+00,
544,1.14e+02,3.04e+00,3.28e+00,
545,1.12e+02,3.28e+00,3.20e+00,
546,1.12e+02,3.20e+00,3.28e+00,
547,1.14e+02,3.04e+00,3.20e+00,
548,1.14e+02,3.04e+00,3.28e+00,
549,1.12e+02,3.28e+00,3.20e+00,
550,1.14e+02,3.28e+00,3.28e+00,
551,1.10e+02,2.96e+00,3.12e+00,
552,1.12e+02,3.12e+00,3.20e+00,
553,1.08e+02,2.96e+00,3.12e+00,
554,1.12e+02,3.12e+00,3.20e+00,
555,1.06e+02,2.88e+00,3.04e+00,
556,1.10e+02,3.12e+00,3.12e+00,
557,1.02e+02,2.88e+00,2.96e+00,
558,1.04e+02,3.04e+00,3.04e+00,
559,9.80e+01,2.80e+00,2.88e+00,
560,1.02e+02,2.96e+00,2.88e+00,
561,9.60e+01,2.72e+00,3.04e+00,
562,9.60e+01,2.88e+00,2.88e+00,
563,9.00e+01,2.56e+00,2.72e+00,
564,9.40e+01,2.72e+00,2.80e+00,
565,8.80e+01,2.56e+00,2.64e+00,
566,9.00e+01,2.64e+00,2.72e+00,
567,8.20e+01,2.40e+00,2.56e+00,
568,8.40e+01,2.56e+00,2.64e+00,
569,7.60e+01,2.32e+00,2.40e+00,
570,8.00e+01,2.48e+00,2.56e+00,
571,7.00e+01,2.16e+00,2.24e+00,
572,7.40e+01,2.32e+00,2.32e+00,
573,6.60e+01,2.00e+00,2.16e+00,
574,7.00e+01,2.24e+00,2.24e+00,
575,6.00e+01,1.92e+00,2.08e+00,
576,6.40e+01,2.08e+00,2.16e+00,
577,5.60e+01,1.84e+00,1.84e+00,
578,5.80e+01,2.00e+00,1.92e+00,
579,5.00e+01,1.60e+00,1.76e+00,
580,5.20e+01,1.92e+00,1.84e+00,
581,4.60e+01,1.52e+00,1.68e+00,
582,5.00e+01,1.76e+00,1.76e+00,
583,4.00e+01,1.44e+00,1.60e+00,
584,4.60e+01,1.60e+00,1.68e+00,
585,3.60e+01,1.36e+00,1.44e+00,
586,4.00e+01,1.52e+00,1.52e+00,
587,3.20e+01,1.20e+00,1.28e+00,
588,3.60e+01,1.36e+00,1.44e+00,
589,2.80e+01,1.12e+00,1.20e+00,
590,3.00e+01,1.20e+00,1.36e+00,
591,2.40e+01,9.60e-01,1.04e+00,
592,2.80e+01,1.12e+00,1.12e+00,
593,2.00e+01,8.80e-01,8.80e-01,
594,2.20e+01,1.04e+00,1.04e+00,
595,1.60e+01,6.40e-01,8.00e-01,
596,2.00e+01,8.80e-01,8.80e-01,
597,1.40e+01,6.40e-01,7.20e-01,
598,1.60e+01,8.00e-01,8.00e-01,
599,1.00e+01,4.80e-01,6.40e-01,
600,1.40e+01,7.20e-01,7.20e-01,
601,6.00e+00,4.00e-01,4.80e-01,
602,1.00e+01,5.60e-01,5.60e-01,
603,6.00e+00,3.20e-01,4.00e-01,
604,8.00e+00,5.60e-01,5.60e-01,
605,4.00e+00,2.40e-01,3.20e-01,
606,6.00e+00,4.00e-01,4.80e-01,
607,2.00e+00,1.60e-01,2.40e-01,
608,2.00e+00,3.20e-01,2.40e-01,
609,6.00e+00,8.00e-02,4.00e-01,
610,0.00e+00,0.00e+00,3.20e-01,
611,4.00e+00,2.40e-01,8.00e-02,
612,4.00e+00,2.40e-01,1.60e-01,
613,0.00e+00,0.00e+00,8.00e-02,
614,4.00e+00,2.40e-01,1.60e-01,
615,-2.00e+00,-1.60e-01,0.00e+00,
616,0.00e+00,1.60e-01,1.60e-01,
617,-2.00e+00,-1.60e-01,0.00e+00,
618,0.00e+00,1.60e-01,8.00e-02,
619,-2.00e+00,0.00e+00,0.00e+00,
620,0.00e+00,8.00e-02,0.00e+00,
621,-2.00e+00,-8.00e-02,8.00e-02,
622,0.00e+00,0.00e+00,8.00e-02,
623,-2.00e+00,1.60e-01,0.00e+00,
