release/v0.0/electrical/data/driver/125Hz_130V.csv

X,CH1,CH2,CH3,Start,Increment,
Sequence,Volt,Volt,Volt,-3.000000e-02,5.000000e-05
0,1.26e+02,2.08e+00,2.32e+00,
1,1.32e+02,2.32e+00,2.16e+00,
2,1.28e+02,2.08e+00,2.16e+00,
3,1.24e+02,2.32e+00,2.40e+00,
4,1.28e+02,2.24e+00,2.32e+00,
5,1.24e+02,2.08e+00,2.16e+00,
6,1.28e+02,2.08e+00,2.16e+00,
7,1.24e+02,2.24e+00,2.32e+00,
8,1.26e+02,2.24e+00,2.16e+00,
9,1.24e+02,2.00e+00,2.32e+00,
10,1.26e+02,2.24e+00,2.16e+00,
11,1.22e+02,2.00e+00,2.32e+00,
12,1.22e+02,2.24e+00,2.32e+00,
13,1.26e+02,2.00e+00,2.00e+00,
14,1.26e+02,2.40e+00,2.00e+00,
15,1.20e+02,1.76e+00,2.32e+00,
16,1.24e+02,2.40e+00,2.24e+00,
17,1.14e+02,1.68e+00,1.76e+00,
18,1.22e+02,1.68e+00,1.92e+00,
19,1.14e+02,2.32e+00,2.16e+00,
20,1.18e+02,2.32e+00,2.16e+00,
21,1.10e+02,1.60e+00,1.60e+00,
22,1.14e+02,2.24e+00,2.08e+00,
23,1.08e+02,1.52e+00,1.60e+00,
24,1.12e+02,1.52e+00,2.00e+00,
25,1.02e+02,2.16e+00,1.60e+00,
26,1.08e+02,2.16e+00,2.00e+00,
27,1.00e+02,1.36e+00,1.52e+00,
28,1.04e+02,1.36e+00,1.92e+00,
29,9.40e+01,2.00e+00,1.36e+00,
30,9.80e+01,1.92e+00,1.92e+00,
31,9.00e+01,1.28e+00,1.36e+00,
32,9.40e+01,1.84e+00,1.68e+00,
33,8.40e+01,1.20e+00,1.20e+00,
34,9.00e+01,1.76e+00,1.68e+00,
35,8.00e+01,1.12e+00,1.20e+00,
36,8.40e+01,1.76e+00,1.60e+00,
37,7.60e+01,1.04e+00,1.20e+00,
38,8.00e+01,1.60e+00,1.52e+00,
39,7.20e+01,9.60e-01,1.12e+00,
40,7.60e+01,1.52e+00,1.44e+00,
41,6.80e+01,8.00e-01,1.04e+00,
42,7.00e+01,1.44e+00,1.36e+00,
43,6.20e+01,8.00e-01,8.80e-01,
44,6.60e+01,1.36e+00,9.60e-01,
45,5.80e+01,7.20e-01,1.36e+00,
46,6.20e+01,1.28e+00,1.20e+00,
47,5.20e+01,6.40e-01,8.80e-01,
48,5.80e+01,1.12e+00,1.12e+00,
49,4.80e+01,5.60e-01,7.20e-01,
50,5.20e+01,1.04e+00,6.40e-01,
51,4.40e+01,4.80e-01,1.12e+00,
52,4.80e+01,9.60e-01,1.04e+00,
53,3.80e+01,3.20e-01,5.60e-01,
54,4.20e+01,8.80e-01,4.80e-01,
55,3.40e+01,3.20e-01,9.60e-01,
56,3.80e+01,8.00e-01,8.00e-01,
57,3.00e+01,2.40e-01,4.80e-01,
58,3.40e+01,6.40e-01,7.20e-01,
59,2.60e+01,1.60e-01,4.00e-01,
60,3.00e+01,6.40e-01,7.20e-01,
61,2.20e+01,1.60e-01,2.40e-01,
62,2.60e+01,5.60e-01,6.40e-01,
63,1.80e+01,8.00e-02,2.40e-01,
64,2.20e+01,0.00e+00,1.60e-01,
65,1.40e+01,4.80e-01,5.60e-01,
66,1.80e+01,4.00e-01,4.80e-01,
67,1.20e+01,-8.00e-02,8.00e-02,
68,1.60e+01,4.00e-01,4.80e-01,
69,8.00e+00,-8.00e-02,8.00e-02,
70,1.20e+01,-8.00e-02,3.20e-01,
71,6.00e+00,3.20e-01,0.00e+00,
72,1.00e+01,2.40e-01,3.20e-01,
73,4.00e+00,-1.60e-01,0.00e+00,
74,8.00e+00,2.40e-01,2.40e-01,
75,4.00e+00,-1.60e-01,0.00e+00,
76,8.00e+00,1.60e-01,2.40e-01,
77,0.00e+00,-1.60e-01,-8.00e-02,
78,6.00e+00,-1.60e-01,2.40e-01,
79,0.00e+00,8.00e-02,-8.00e-02,
80,2.00e+00,8.00e-02,2.40e-01,
81,6.00e+00,-1.60e-01,-8.00e-02,
82,4.00e+00,8.00e-02,2.40e-01,
83,6.00e+00,-1.60e-01,-8.00e-02,
84,4.00e+00,8.00e-02,2.40e-01,
85,6.00e+00,-8.00e-02,-8.00e-02,
86,4.00e+00,-8.00e-02,2.40e-01,
87,6.00e+00,1.60e-01,-8.00e-02,
88,4.00e+00,-8.00e-02,2.40e-01,
89,6.00e+00,1.60e-01,-8.00e-02,
90,4.00e+00,-1.60e-01,-8.00e-02,
91,8.00e+00,2.40e-01,3.20e-01,
92,4.00e+00,-1.60e-01,3.20e-01,
93,1.00e+01,3.20e-01,-1.60e-01,
94,6.00e+00,-8.00e-02,-8.00e-02,
95,1.00e+01,3.20e-01,4.80e-01,
96,8.00e+00,-8.00e-02,0.00e+00,
97,1.20e+01,4.00e-01,4.80e-01,
98,1.00e+01,0.00e+00,4.80e-01,
99,1.80e+01,4.80e-01,0.00e+00,
100,1.40e+01,0.00e+00,8.00e-02,
101,2.00e+01,4.80e-01,5.60e-01,
102,1.80e+01,1.60e-01,8.00e-02,
103,2.20e+01,5.60e-01,5.60e-01,
104,2.00e+01,1.60e-01,1.60e-01,
105,2.80e+01,5.60e-01,6.40e-01,
106,2.40e+01,2.40e-01,2.40e-01,
107,3.20e+01,7.20e-01,7.20e-01,
108,2.80e+01,2.40e-01,2.40e-01,
109,3.40e+01,8.00e-01,8.00e-01,
110,3.20e+01,3.20e-01,4.00e-01,
111,4.00e+01,8.80e-01,8.00e-01,
112,3.60e+01,8.80e-01,4.80e-01,
113,4.40e+01,4.00e-01,9.60e-01,
114,4.00e+01,4.80e-01,4.80e-01,
115,5.00e+01,1.04e+00,1.04e+00,
116,4.60e+01,5.60e-01,6.40e-01,
117,5.40e+01,1.04e+00,1.12e+00,
118,5.00e+01,6.40e-01,1.12e+00,
119,6.00e+01,1.20e+00,6.40e-01,
120,5.60e+01,7.20e-01,8.00e-01,
121,6.40e+01,1.28e+00,1.28e+00,
122,6.00e+01,8.00e-01,8.80e-01,
123,7.00e+01,1.36e+00,1.44e+00,
124,6.60e+01,1.44e+00,9.60e-01,
125,7.40e+01,8.80e-01,1.44e+00,
126,7.00e+01,9.60e-01,1.52e+00,
127,8.00e+01,1.52e+00,1.12e+00,
128,7.60e+01,9.60e-01,1.12e+00,
129,8.40e+01,1.68e+00,1.60e+00,
130,8.00e+01,1.12e+00,1.28e+00,
131,9.00e+01,1.76e+00,1.68e+00,
132,8.40e+01,1.20e+00,1.36e+00,
133,9.40e+01,1.84e+00,1.84e+00,
134,9.00e+01,1.28e+00,1.44e+00,
135,9.80e+01,1.92e+00,1.92e+00,
136,9.40e+01,1.36e+00,1.92e+00,
137,1.02e+02,2.08e+00,1.44e+00,
138,1.00e+02,1.36e+00,1.60e+00,
139,1.06e+02,2.08e+00,2.00e+00,
140,1.02e+02,2.16e+00,1.68e+00,
141,1.10e+02,1.52e+00,2.08e+00,
142,1.06e+02,1.60e+00,1.76e+00,
143,1.14e+02,2.24e+00,2.16e+00,
144,1.12e+02,1.60e+00,1.76e+00,
145,1.18e+02,2.32e+00,2.16e+00,
146,1.14e+02,2.32e+00,1.76e+00,
147,1.22e+02,1.68e+00,2.32e+00,
148,1.16e+02,1.68e+00,2.32e+00,
149,1.24e+02,2.40e+00,1.84e+00,
150,1.20e+02,2.40e+00,1.92e+00,
151,1.26e+02,1.76e+00,2.32e+00,
152,1.22e+02,1.76e+00,2.40e+00,
153,1.28e+02,2.56e+00,1.92e+00,
154,1.24e+02,1.84e+00,1.92e+00,
155,1.28e+02,2.48e+00,2.48e+00,
156,1.24e+02,1.76e+00,2.00e+00,
157,1.30e+02,2.64e+00,2.48e+00,
158,1.26e+02,1.84e+00,1.92e+00,
159,1.32e+02,2.64e+00,2.40e+00,
160,1.30e+02,2.24e+00,2.16e+00,
161,1.26e+02,2.08e+00,2.40e+00,
162,1.28e+02,2.24e+00,2.16e+00,
163,1.24e+02,2.08e+00,2.40e+00,
164,1.28e+02,2.08e+00,2.40e+00,
165,1.24e+02,2.24e+00,2.08e+00,
166,1.26e+02,2.24e+00,2.16e+00,
167,1.24e+02,2.08e+00,2.40e+00,
168,1.24e+02,2.24e+00,2.40e+00,
169,1.26e+02,2.00e+00,2.16e+00,
170,1.26e+02,2.24e+00,2.32e+00,
171,1.22e+02,2.00e+00,2.00e+00,
172,1.22e+02,2.24e+00,2.00e+00,
173,1.26e+02,2.00e+00,2.32e+00,
174,1.26e+02,2.24e+00,2.24e+00,
175,1.20e+02,1.84e+00,1.92e+00,
176,1.24e+02,2.24e+00,2.16e+00,
177,1.18e+02,1.76e+00,1.84e+00,
178,1.22e+02,2.24e+00,2.16e+00,
179,1.14e+02,1.68e+00,1.84e+00,
180,1.18e+02,2.16e+00,1.76e+00,
181,1.10e+02,1.60e+00,2.16e+00,
182,1.14e+02,1.60e+00,2.08e+00,
183,1.06e+02,2.08e+00,1.68e+00,
184,1.12e+02,2.00e+00,1.52e+00,
185,1.02e+02,1.52e+00,2.00e+00,
186,1.06e+02,2.00e+00,1.92e+00,
187,1.00e+02,1.44e+00,1.44e+00,
188,1.04e+02,1.92e+00,1.92e+00,
189,9.40e+01,1.36e+00,1.36e+00,
190,9.80e+01,1.84e+00,1.36e+00,
191,9.00e+01,1.20e+00,1.84e+00,
192,9.40e+01,1.76e+00,1.28e+00,
193,8.40e+01,1.20e+00,1.68e+00,
194,9.00e+01,1.76e+00,1.60e+00,
195,8.00e+01,1.12e+00,1.12e+00,
196,8.40e+01,1.60e+00,1.60e+00,
197,7.60e+01,1.04e+00,1.04e+00,
198,8.20e+01,1.52e+00,1.52e+00,
199,7.00e+01,8.80e-01,9.60e-01,
200,7.40e+01,1.44e+00,1.44e+00,
201,6.60e+01,8.00e-01,8.80e-01,
202,7.00e+01,1.36e+00,8.80e-01,
203,6.20e+01,7.20e-01,1.36e+00,
204,6.60e+01,1.36e+00,1.36e+00,
205,5.80e+01,7.20e-01,8.00e-01,
206,6.20e+01,6.40e-01,1.20e+00,
207,5.20e+01,1.28e+00,7.20e-01,
208,5.80e+01,1.12e+00,1.12e+00,
209,4.80e+01,4.80e-01,5.60e-01,
210,5.20e+01,1.04e+00,1.04e+00,
211,4.20e+01,4.00e-01,4.80e-01,
212,4.80e+01,9.60e-01,4.80e-01,
213,3.80e+01,3.20e-01,9.60e-01,
214,4.20e+01,8.80e-01,8.00e-01,
215,3.40e+01,2.40e-01,4.00e-01,
216,3.80e+01,8.00e-01,7.20e-01,
217,2.80e+01,2.40e-01,3.20e-01,
218,3.40e+01,7.20e-01,7.20e-01,
219,2.60e+01,1.60e-01,2.40e-01,
220,3.00e+01,6.40e-01,2.40e-01,
221,2.00e+01,1.60e-01,6.40e-01,
222,2.40e+01,1.60e-01,1.60e-01,
223,1.80e+01,5.60e-01,6.40e-01,
224,2.20e+01,4.80e-01,4.80e-01,
225,1.40e+01,0.00e+00,8.00e-02,
226,1.80e+01,4.80e-01,4.00e-01,
227,1.00e+01,0.00e+00,8.00e-02,
228,1.60e+01,4.00e-01,3.20e-01,
229,8.00e+00,-8.00e-02,8.00e-02,
230,1.20e+01,3.20e-01,8.00e-02,
231,6.00e+00,-8.00e-02,3.20e-01,
232,1.00e+01,2.40e-01,0.00e+00,
233,6.00e+00,-8.00e-02,3.20e-01,
234,4.00e+00,2.40e-01,0.00e+00,
235,8.00e+00,-1.60e-01,2.40e-01,
236,8.00e+00,1.60e-01,-8.00e-02,
237,0.00e+00,-1.60e-01,2.40e-01,
238,6.00e+00,8.00e-02,1.60e-01,
239,0.00e+00,-1.60e-01,-8.00e-02,
240,0.00e+00,8.00e-02,0.00e+00,
241,6.00e+00,-1.60e-01,1.60e-01,
242,4.00e+00,8.00e-02,0.00e+00,
243,6.00e+00,-1.60e-01,1.60e-01,
244,4.00e+00,8.00e-02,1.60e-01,
245,6.00e+00,-1.60e-01,0.00e+00,
246,4.00e+00,8.00e-02,1.60e-01,
247,6.00e+00,-1.60e-01,0.00e+00,
248,4.00e+00,-8.00e-02,0.00e+00,
249,6.00e+00,8.00e-02,1.60e-01,
250,4.00e+00,-2.40e-01,-2.40e-01,
251,8.00e+00,3.20e-01,3.20e-01,
252,4.00e+00,-1.60e-01,-2.40e-01,
253,1.00e+01,4.00e-01,4.00e-01,
254,6.00e+00,3.20e-01,-1.60e-01,
255,1.00e+01,-1.60e-01,4.80e-01,
256,8.00e+00,-8.00e-02,-1.60e-01,
257,1.20e+01,4.00e-01,4.80e-01,
258,1.00e+01,-8.00e-02,-8.00e-02,
259,1.80e+01,4.80e-01,5.60e-01,
260,1.40e+01,-8.00e-02,-8.00e-02,
261,2.00e+01,4.80e-01,6.40e-01,
262,1.60e+01,0.00e+00,0.00e+00,
263,2.20e+01,5.60e-01,6.40e-01,
264,2.00e+01,0.00e+00,0.00e+00,
265,2.80e+01,6.40e-01,7.20e-01,
266,2.40e+01,2.40e-01,8.00e-02,
267,3.20e+01,7.20e-01,8.00e-01,
268,2.80e+01,3.20e-01,8.00e-01,
269,3.40e+01,8.00e-01,1.60e-01,
270,3.20e+01,3.20e-01,9.60e-01,
271,4.00e+01,8.80e-01,2.40e-01,
272,3.80e+01,4.00e-01,4.00e-01,
273,4.40e+01,9.60e-01,1.04e+00,
274,4.20e+01,4.80e-01,1.20e+00,
275,5.00e+01,1.04e+00,4.80e-01,
276,4.60e+01,6.40e-01,4.80e-01,
277,5.40e+01,1.04e+00,1.28e+00,
278,5.00e+01,7.20e-01,5.60e-01,
279,6.00e+01,1.20e+00,1.20e+00,
280,5.60e+01,8.00e-01,7.20e-01,
281,6.40e+01,1.28e+00,1.36e+00,
282,6.00e+01,8.00e-01,8.80e-01,
283,7.00e+01,1.36e+00,1.44e+00,
284,6.80e+01,9.60e-01,1.52e+00,
285,7.40e+01,1.44e+00,8.80e-01,
286,7.20e+01,1.04e+00,1.04e+00,
287,8.00e+01,1.52e+00,1.60e+00,
288,7.60e+01,1.12e+00,1.12e+00,
289,8.40e+01,1.68e+00,1.68e+00,
290,8.00e+01,1.20e+00,1.68e+00,
291,9.00e+01,1.68e+00,1.20e+00,
292,8.40e+01,1.36e+00,1.28e+00,
293,9.40e+01,1.84e+00,1.84e+00,
294,9.00e+01,1.84e+00,1.36e+00,
295,9.80e+01,1.36e+00,1.92e+00,
296,9.40e+01,1.52e+00,1.92e+00,
297,1.02e+02,1.92e+00,1.44e+00,
298,1.00e+02,1.60e+00,1.52e+00,
299,1.06e+02,2.00e+00,2.00e+00,
300,1.02e+02,1.60e+00,2.00e+00,
301,1.10e+02,2.08e+00,1.60e+00,
302,1.08e+02,1.68e+00,2.08e+00,
303,1.14e+02,2.16e+00,1.68e+00,
304,1.12e+02,1.68e+00,1.68e+00,
305,1.18e+02,2.24e+00,2.16e+00,
306,1.14e+02,2.24e+00,1.84e+00,
307,1.22e+02,1.76e+00,2.16e+00,
308,1.16e+02,1.76e+00,2.32e+00,
309,1.24e+02,2.32e+00,1.84e+00,
310,1.20e+02,2.32e+00,1.92e+00,
311,1.26e+02,1.84e+00,2.32e+00,
312,1.22e+02,2.32e+00,1.92e+00,
313,1.26e+02,1.84e+00,2.32e+00,
314,1.24e+02,1.92e+00,2.00e+00,
315,1.28e+02,2.40e+00,2.40e+00,
316,1.24e+02,1.92e+00,2.40e+00,
317,1.32e+02,2.40e+00,2.00e+00,
318,1.26e+02,2.00e+00,2.40e+00,
319,1.30e+02,2.48e+00,2.00e+00,
320,1.30e+02,2.08e+00,2.40e+00,
321,1.26e+02,2.24e+00,2.08e+00,
322,1.28e+02,2.08e+00,2.16e+00,
323,1.24e+02,2.24e+00,2.40e+00,
324,1.28e+02,2.08e+00,2.16e+00,
325,1.24e+02,2.24e+00,2.40e+00,
326,1.26e+02,2.24e+00,2.40e+00,
327,1.24e+02,2.00e+00,2.08e+00,
328,1.24e+02,2.24e+00,2.32e+00,
329,1.26e+02,2.00e+00,2.00e+00,
330,1.26e+02,2.24e+00,2.00e+00,
331,1.22e+02,2.00e+00,2.32e+00,
332,1.22e+02,2.00e+00,2.00e+00,
333,1.26e+02,2.24e+00,2.32e+00,
334,1.26e+02,2.24e+00,1.92e+00,
335,1.20e+02,1.76e+00,2.24e+00,
336,1.24e+02,2.16e+00,1.84e+00,
337,1.14e+02,1.68e+00,2.32e+00,
338,1.22e+02,2.16e+00,1.84e+00,
339,1.14e+02,1.68e+00,2.16e+00,
340,1.18e+02,2.08e+00,2.08e+00,
341,1.10e+02,1.60e+00,1.76e+00,
342,1.14e+02,2.00e+00,2.08e+00,
343,1.06e+02,1.52e+00,1.68e+00,
344,1.10e+02,1.92e+00,2.00e+00,
345,1.04e+02,1.44e+00,1.60e+00,
346,1.06e+02,1.84e+00,1.92e+00,
347,1.00e+02,1.36e+00,1.52e+00,
348,1.04e+02,1.84e+00,1.92e+00,
349,9.60e+01,1.28e+00,1.52e+00,
350,9.80e+01,1.76e+00,1.44e+00,
351,9.00e+01,1.20e+00,1.84e+00,
352,9.40e+01,1.68e+00,1.68e+00,
353,8.40e+01,1.12e+00,1.28e+00,
354,8.80e+01,1.12e+00,1.60e+00,
355,8.00e+01,1.68e+00,1.20e+00,
356,8.40e+01,1.52e+00,1.60e+00,
357,7.60e+01,9.60e-01,1.12e+00,
358,8.00e+01,1.44e+00,1.44e+00,
359,7.00e+01,8.80e-01,1.12e+00,
360,7.60e+01,1.36e+00,1.36e+00,
361,6.60e+01,8.00e-01,9.60e-01,
362,7.00e+01,1.28e+00,1.28e+00,
363,6.20e+01,7.20e-01,8.80e-01,
364,6.60e+01,1.28e+00,8.80e-01,
365,5.80e+01,7.20e-01,1.20e+00,
366,6.20e+01,6.40e-01,1.12e+00,
367,5.20e+01,1.20e+00,8.00e-01,
368,5.60e+01,1.04e+00,1.04e+00,
369,4.80e+01,4.80e-01,6.40e-01,
370,5.20e+01,9.60e-01,9.60e-01,
371,4.40e+01,4.80e-01,5.60e-01,
372,4.80e+01,8.80e-01,9.60e-01,
373,3.80e+01,4.00e-01,4.80e-01,
374,4.20e+01,8.80e-01,8.00e-01,
375,3.40e+01,3.20e-01,4.00e-01,
376,3.80e+01,8.00e-01,7.20e-01,
377,2.80e+01,2.40e-01,2.40e-01,
378,3.40e+01,7.20e-01,6.40e-01,
379,2.60e+01,1.60e-01,2.40e-01,
380,3.00e+01,5.60e-01,5.60e-01,
381,2.00e+01,8.00e-02,1.60e-01,
382,2.40e+01,5.60e-01,5.60e-01,
383,1.80e+01,0.00e+00,1.60e-01,
384,2.20e+01,4.80e-01,4.80e-01,
385,1.40e+01,0.00e+00,8.00e-02,
386,1.80e+01,4.00e-01,4.80e-01,
387,1.00e+01,-8.00e-02,8.00e-02,
388,1.60e+01,3.20e-01,3.20e-01,
389,8.00e+00,-8.00e-02,0.00e+00,
390,1.20e+01,3.20e-01,0.00e+00,
391,6.00e+00,-1.60e-01,3.20e-01,
392,1.00e+01,2.40e-01,3.20e-01,
393,4.00e+00,-1.60e-01,0.00e+00,
394,8.00e+00,1.60e-01,3.20e-01,
395,4.00e+00,-1.60e-01,0.00e+00,
396,8.00e+00,1.60e-01,0.00e+00,
397,0.00e+00,-1.60e-01,2.40e-01,
398,6.00e+00,8.00e-02,0.00e+00,
399,0.00e+00,-1.60e-01,2.40e-01,
400,6.00e+00,8.00e-02,1.60e-01,
401,0.00e+00,-8.00e-02,0.00e+00,
402,4.00e+00,8.00e-02,0.00e+00,
403,6.00e+00,-1.60e-01,1.60e-01,
404,4.00e+00,-1.60e-01,1.60e-01,
405,6.00e+00,8.00e-02,0.00e+00,
406,4.00e+00,-8.00e-02,1.60e-01,
407,6.00e+00,8.00e-02,0.00e+00,
408,6.00e+00,-8.00e-02,1.60e-01,
409,4.00e+00,8.00e-02,0.00e+00,
410,4.00e+00,-8.00e-02,3.20e-01,
411,8.00e+00,4.00e-01,-8.00e-02,
412,4.00e+00,4.80e-01,-8.00e-02,
413,1.00e+01,-1.60e-01,3.20e-01,
414,6.00e+00,4.80e-01,4.00e-01,
415,1.20e+01,-2.40e-01,0.00e+00,
416,8.00e+00,4.80e-01,0.00e+00,
417,1.60e+01,-1.60e-01,4.80e-01,
418,1.00e+01,-1.60e-01,0.00e+00,
419,1.80e+01,5.60e-01,5.60e-01,
420,1.40e+01,5.60e-01,8.00e-02,
421,2.00e+01,-8.00e-02,5.60e-01,
422,1.80e+01,-8.00e-02,8.00e-02,
423,2.20e+01,7.20e-01,6.40e-01,
424,2.00e+01,8.00e-02,1.60e-01,
425,2.80e+01,7.20e-01,6.40e-01,
426,2.40e+01,1.60e-01,7.20e-01,
427,3.00e+01,8.00e-01,2.40e-01,
428,2.80e+01,1.60e-01,3.20e-01,
429,3.40e+01,8.80e-01,8.00e-01,
430,3.20e+01,2.40e-01,4.00e-01,
431,4.00e+01,9.60e-01,9.60e-01,
432,3.80e+01,3.20e-01,4.80e-01,
433,4.40e+01,1.04e+00,9.60e-01,
434,4.20e+01,4.00e-01,4.80e-01,
435,5.00e+01,1.04e+00,1.04e+00,
436,4.60e+01,4.80e-01,4.80e-01,
437,5.40e+01,1.20e+00,1.12e+00,
438,5.00e+01,6.40e-01,6.40e-01,
439,6.00e+01,1.28e+00,1.20e+00,
440,5.60e+01,7.20e-01,6.40e-01,
441,6.40e+01,1.28e+00,1.28e+00,
442,6.00e+01,8.00e-01,8.00e-01,
443,7.00e+01,1.44e+00,1.44e+00,
444,6.60e+01,8.80e-01,8.80e-01,
445,7.40e+01,1.44e+00,1.52e+00,
446,7.00e+01,1.52e+00,9.60e-01,
447,8.00e+01,9.60e-01,1.60e+00,
448,7.60e+01,1.12e+00,9.60e-01,
449,8.40e+01,1.68e+00,1.68e+00,
450,8.00e+01,1.20e+00,1.12e+00,
451,9.00e+01,1.76e+00,1.84e+00,
452,8.60e+01,1.28e+00,1.12e+00,
453,9.40e+01,1.84e+00,1.92e+00,
454,9.00e+01,1.36e+00,1.28e+00,
455,9.80e+01,1.84e+00,2.00e+00,
456,9.40e+01,1.36e+00,1.36e+00,
457,1.02e+02,1.92e+00,2.16e+00,
458,1.00e+02,1.52e+00,1.44e+00,
459,1.06e+02,2.00e+00,2.16e+00,
460,1.02e+02,1.60e+00,1.52e+00,
461,1.12e+02,2.08e+00,2.16e+00,
462,1.08e+02,1.60e+00,1.52e+00,
463,1.14e+02,2.16e+00,2.24e+00,
464,1.12e+02,1.76e+00,1.60e+00,
465,1.16e+02,2.16e+00,2.32e+00,
466,1.14e+02,2.24e+00,1.68e+00,
467,1.22e+02,1.76e+00,2.40e+00,
468,1.16e+02,2.32e+00,2.32e+00,
469,1.24e+02,1.84e+00,1.76e+00,
470,1.20e+02,1.84e+00,1.84e+00,
471,1.26e+02,2.32e+00,2.40e+00,
472,1.22e+02,2.00e+00,2.40e+00,
473,1.28e+02,2.32e+00,1.84e+00,
474,1.24e+02,2.00e+00,1.84e+00,
475,1.28e+02,2.40e+00,2.48e+00,
476,1.24e+02,2.00e+00,1.92e+00,
477,1.32e+02,2.40e+00,2.48e+00,
478,1.26e+02,2.08e+00,2.48e+00,
479,1.30e+02,2.48e+00,2.00e+00,
480,1.30e+02,2.08e+00,2.40e+00,
481,1.26e+02,2.32e+00,2.16e+00,
482,1.28e+02,2.08e+00,2.16e+00,
483,1.24e+02,2.32e+00,2.40e+00,
484,1.24e+02,2.08e+00,2.40e+00,
485,1.28e+02,2.24e+00,2.00e+00,
486,1.24e+02,2.24e+00,2.40e+00,
487,1.26e+02,2.08e+00,2.00e+00,
488,1.26e+02,2.24e+00,2.32e+00,
489,1.24e+02,2.00e+00,2.00e+00,
490,1.26e+02,2.24e+00,2.32e+00,
491,1.22e+02,2.00e+00,2.00e+00,
492,1.22e+02,2.24e+00,2.32e+00,
493,1.26e+02,2.00e+00,1.92e+00,
494,1.26e+02,2.24e+00,2.24e+00,
495,1.20e+02,1.76e+00,1.84e+00,
496,1.24e+02,2.24e+00,2.24e+00,
497,1.16e+02,1.68e+00,1.84e+00,
498,1.22e+02,2.16e+00,2.16e+00,
499,1.14e+02,1.68e+00,1.84e+00,
500,1.18e+02,2.16e+00,2.08e+00,
501,1.10e+02,1.60e+00,1.76e+00,
502,1.14e+02,2.00e+00,2.00e+00,
503,1.08e+02,1.52e+00,1.76e+00,
504,1.12e+02,2.00e+00,1.60e+00,
505,1.02e+02,1.44e+00,2.08e+00,
506,1.06e+02,1.92e+00,1.92e+00,
507,1.00e+02,1.36e+00,1.52e+00,
508,1.04e+02,1.84e+00,1.52e+00,
509,9.40e+01,1.28e+00,1.84e+00,
510,9.80e+01,1.76e+00,1.44e+00,
511,9.00e+01,1.20e+00,1.84e+00,
512,9.40e+01,1.20e+00,1.68e+00,
513,8.60e+01,1.68e+00,1.36e+00,
514,9.00e+01,1.60e+00,1.60e+00,
515,8.00e+01,1.12e+00,1.28e+00,
516,8.40e+01,1.44e+00,1.52e+00,
517,7.60e+01,9.60e-01,1.12e+00,
518,8.00e+01,1.44e+00,1.44e+00,
519,7.00e+01,8.80e-01,1.04e+00,
520,7.40e+01,1.36e+00,1.36e+00,
521,6.60e+01,8.00e-01,9.60e-01,
522,7.00e+01,1.20e+00,9.60e-01,
523,6.00e+01,7.20e-01,1.36e+00,
524,6.60e+01,1.20e+00,1.20e+00,
525,5.80e+01,6.40e-01,8.80e-01,
526,6.20e+01,1.04e+00,1.12e+00,
527,5.20e+01,6.40e-01,7.20e-01,
528,5.80e+01,9.60e-01,1.04e+00,
529,4.80e+01,4.80e-01,6.40e-01,
530,5.20e+01,9.60e-01,9.60e-01,
531,4.40e+01,4.00e-01,5.60e-01,
532,4.80e+01,8.80e-01,8.80e-01,
533,3.80e+01,3.20e-01,4.00e-01,
534,4.20e+01,8.00e-01,8.00e-01,
535,3.40e+01,2.40e-01,4.00e-01,
536,3.80e+01,7.20e-01,4.00e-01,
537,3.00e+01,2.40e-01,7.20e-01,
538,3.40e+01,5.60e-01,6.40e-01,
539,2.60e+01,1.60e-01,1.60e-01,
540,3.00e+01,5.60e-01,6.40e-01,
541,2.20e+01,8.00e-02,2.40e-01,
542,2.60e+01,4.80e-01,5.60e-01,
543,1.80e+01,0.00e+00,1.60e-01,
544,2.20e+01,4.00e-01,1.60e-01,
545,1.40e+01,-8.00e-02,4.80e-01,
546,1.80e+01,4.00e-01,4.80e-01,
547,1.00e+01,-8.00e-02,8.00e-02,
548,1.60e+01,3.20e-01,3.20e-01,
549,8.00e+00,-1.60e-01,8.00e-02,
550,1.20e+01,-1.60e-01,2.40e-01,
551,6.00e+00,3.20e-01,8.00e-02,
552,1.00e+01,-1.60e-01,2.40e-01,
553,4.00e+00,2.40e-01,0.00e+00,
554,8.00e+00,1.60e-01,0.00e+00,
555,4.00e+00,-1.60e-01,2.40e-01,
556,8.00e+00,2.40e-01,0.00e+00,
557,0.00e+00,-1.60e-01,2.40e-01,
558,6.00e+00,1.60e-01,1.60e-01,
559,0.00e+00,-1.60e-01,-8.00e-02,
560,6.00e+00,8.00e-02,1.60e-01,
561,0.00e+00,-8.00e-02,-8.00e-02,
562,4.00e+00,8.00e-02,1.60e-01,
563,6.00e+00,-8.00e-02,-8.00e-02,
564,4.00e+00,-8.00e-02,-8.00e-02,
565,6.00e+00,8.00e-02,2.40e-01,
566,6.00e+00,-8.00e-02,1.60e-01,
567,4.00e+00,8.00e-02,-8.00e-02,
568,4.00e+00,-8.00e-02,1.60e-01,
569,6.00e+00,8.00e-02,0.00e+00,
570,4.00e+00,-2.40e-01,-3.20e-01,
571,8.00e+00,4.00e-01,3.20e-01,
572,4.00e+00,-2.40e-01,3.20e-01,
573,1.00e+01,5.60e-01,-2.40e-01,
574,6.00e+00,-2.40e-01,3.20e-01,
575,1.20e+01,5.60e-01,-2.40e-01,
576,8.00e+00,-1.60e-01,4.00e-01,
577,1.40e+01,5.60e-01,-2.40e-01,
578,1.00e+01,-1.60e-01,-8.00e-02,
579,1.80e+01,7.20e-01,4.80e-01,
580,1.40e+01,-8.00e-02,-8.00e-02,
581,2.00e+01,7.20e-01,5.60e-01,
582,1.80e+01,8.00e-02,0.00e+00,
583,2.40e+01,8.00e-01,6.40e-01,
584,2.00e+01,2.40e-01,8.00e-02,
585,2.80e+01,8.80e-01,6.40e-01,
586,2.40e+01,8.80e-01,7.20e-01,
587,3.20e+01,2.40e-01,1.60e-01,
588,2.80e+01,9.60e-01,2.40e-01,
589,3.40e+01,2.40e-01,8.00e-01,
590,3.20e+01,1.04e+00,3.20e-01,
591,4.00e+01,3.20e-01,9.60e-01,
592,3.80e+01,3.20e-01,4.00e-01,
593,4.40e+01,1.12e+00,1.04e+00,
594,4.00e+01,4.00e-01,4.80e-01,
595,5.00e+01,1.28e+00,1.12e+00,
596,4.60e+01,5.60e-01,5.60e-01,
597,5.40e+01,1.28e+00,1.20e+00,
598,5.20e+01,6.40e-01,1.20e+00,
599,6.00e+01,1.44e+00,7.20e-01,
600,5.60e+01,7.20e-01,8.00e-01,
601,6.40e+01,1.44e+00,1.36e+00,
602,6.00e+01,7.20e-01,8.80e-01,
603,7.00e+01,1.52e+00,1.44e+00,
604,6.60e+01,8.00e-01,9.60e-01,
605,7.40e+01,1.68e+00,1.52e+00,
606,7.20e+01,1.68e+00,1.04e+00,
607,8.00e+01,8.80e-01,1.60e+00,
608,7.80e+01,1.76e+00,1.12e+00,
609,8.40e+01,1.04e+00,1.68e+00,
610,8.20e+01,1.12e+00,1.28e+00,
611,9.00e+01,1.84e+00,1.76e+00,
612,8.40e+01,1.20e+00,1.36e+00,
613,9.40e+01,1.92e+00,1.76e+00,
614,9.00e+01,1.92e+00,1.44e+00,
615,9.80e+01,1.28e+00,1.92e+00,
616,9.40e+01,1.36e+00,1.44e+00,
617,1.02e+02,2.00e+00,2.00e+00,
618,1.00e+02,1.36e+00,1.52e+00,
619,1.06e+02,2.16e+00,2.00e+00,
620,1.04e+02,1.52e+00,2.08e+00,
621,1.12e+02,2.16e+00,1.60e+00,
