release/v0.0/electrical/data/driver/125Hz_130V_High.csv

X,CH1,CH2,CH3,Start,Increment,
Sequence,Volt,Volt,Volt,-3.000000e-02,5.000000e-05
0,6.40e+01,8.00e-01,1.52e+00,
1,7.00e+01,1.68e+00,9.60e-01,
2,6.60e+01,8.00e-01,9.60e-01,
3,7.20e+01,1.68e+00,1.44e+00,
4,7.00e+01,8.00e-01,1.60e+00,
5,7.40e+01,1.60e+00,9.60e-01,
6,7.20e+01,8.80e-01,1.60e+00,
7,7.60e+01,1.76e+00,9.60e-01,
8,7.20e+01,8.80e-01,1.04e+00,
9,7.80e+01,1.76e+00,1.60e+00,
10,7.60e+01,9.60e-01,1.60e+00,
11,8.00e+01,1.76e+00,1.04e+00,
12,7.60e+01,9.60e-01,1.60e+00,
13,8.40e+01,1.76e+00,1.12e+00,
14,8.00e+01,1.12e+00,1.20e+00,
15,8.60e+01,1.84e+00,1.68e+00,
16,8.20e+01,1.12e+00,1.68e+00,
17,8.80e+01,1.84e+00,1.12e+00,
18,8.60e+01,1.92e+00,1.28e+00,
19,9.00e+01,1.12e+00,1.76e+00,
20,8.80e+01,1.20e+00,1.28e+00,
21,9.40e+01,2.00e+00,1.84e+00,
22,9.20e+01,1.20e+00,1.28e+00,
23,9.60e+01,2.00e+00,1.92e+00,
24,9.40e+01,1.28e+00,1.36e+00,
25,9.80e+01,2.00e+00,1.92e+00,
26,9.60e+01,2.16e+00,1.36e+00,
27,1.00e+02,1.36e+00,2.00e+00,
28,9.80e+01,2.16e+00,2.00e+00,
29,1.02e+02,1.36e+00,1.44e+00,
30,1.02e+02,1.44e+00,2.00e+00,
31,1.06e+02,2.24e+00,1.44e+00,
32,1.04e+02,1.52e+00,1.52e+00,
33,1.10e+02,2.32e+00,2.08e+00,
34,1.06e+02,1.60e+00,2.08e+00,
35,1.10e+02,2.32e+00,1.52e+00,
36,1.08e+02,1.60e+00,1.52e+00,
37,1.12e+02,2.32e+00,2.16e+00,
38,1.10e+02,2.32e+00,2.16e+00,
39,1.16e+02,1.68e+00,1.60e+00,
40,1.14e+02,1.68e+00,1.60e+00,
41,1.18e+02,2.40e+00,2.32e+00,
42,1.14e+02,1.68e+00,1.76e+00,
43,1.20e+02,2.48e+00,2.32e+00,
44,1.16e+02,1.76e+00,1.76e+00,
45,1.22e+02,2.48e+00,2.32e+00,
46,1.18e+02,2.48e+00,1.84e+00,
47,1.24e+02,1.84e+00,2.40e+00,
48,1.20e+02,1.76e+00,1.84e+00,
49,1.26e+02,2.48e+00,2.40e+00,
50,1.20e+02,2.64e+00,1.84e+00,
51,1.28e+02,1.76e+00,2.40e+00,
52,1.24e+02,2.56e+00,2.40e+00,
53,1.28e+02,2.00e+00,1.92e+00,
54,1.24e+02,1.92e+00,1.92e+00,
55,1.28e+02,2.56e+00,2.48e+00,
56,1.26e+02,1.92e+00,1.92e+00,
57,1.30e+02,2.56e+00,2.48e+00,
58,1.26e+02,1.92e+00,2.00e+00,
59,1.30e+02,2.64e+00,2.48e+00,
60,1.28e+02,2.08e+00,2.32e+00,
61,1.26e+02,2.32e+00,2.16e+00,
62,1.26e+02,2.08e+00,2.16e+00,
63,1.28e+02,2.24e+00,2.32e+00,
64,1.28e+02,2.24e+00,2.32e+00,
65,1.24e+02,2.08e+00,2.16e+00,
66,1.24e+02,2.24e+00,2.32e+00,
67,1.28e+02,2.00e+00,2.16e+00,
68,1.24e+02,2.08e+00,2.32e+00,
69,1.26e+02,2.24e+00,2.16e+00,
70,1.24e+02,2.24e+00,2.16e+00,
71,1.26e+02,2.00e+00,2.32e+00,
72,1.24e+02,2.24e+00,2.16e+00,
73,1.26e+02,2.00e+00,2.32e+00,
74,1.26e+02,2.24e+00,2.16e+00,
75,1.20e+02,2.00e+00,2.32e+00,
76,1.26e+02,2.24e+00,2.32e+00,
77,1.20e+02,2.00e+00,2.00e+00,
78,1.22e+02,2.00e+00,2.16e+00,
79,1.20e+02,2.24e+00,2.00e+00,
80,1.22e+02,2.40e+00,2.32e+00,
81,1.18e+02,1.76e+00,1.84e+00,
82,1.22e+02,2.32e+00,2.32e+00,
83,1.16e+02,1.76e+00,1.84e+00,
84,1.20e+02,2.32e+00,2.40e+00,
85,1.14e+02,1.60e+00,1.92e+00,
86,1.18e+02,1.68e+00,2.24e+00,
87,1.12e+02,2.24e+00,1.76e+00,
88,1.16e+02,1.60e+00,1.76e+00,
89,1.10e+02,2.24e+00,2.16e+00,
90,1.16e+02,2.08e+00,1.76e+00,
91,1.08e+02,1.60e+00,2.16e+00,
92,1.12e+02,1.60e+00,2.16e+00,
93,1.06e+02,2.16e+00,1.68e+00,
94,1.10e+02,2.08e+00,2.08e+00,
95,1.02e+02,1.44e+00,1.60e+00,
96,1.08e+02,2.00e+00,2.00e+00,
97,9.80e+01,1.44e+00,1.60e+00,
98,1.02e+02,1.92e+00,1.60e+00,
99,9.60e+01,1.44e+00,2.00e+00,
100,1.00e+02,1.92e+00,1.92e+00,
101,9.40e+01,1.44e+00,1.52e+00,
102,9.80e+01,1.28e+00,1.84e+00,
103,9.20e+01,1.84e+00,1.52e+00,
104,9.80e+01,1.84e+00,1.52e+00,
105,9.00e+01,1.20e+00,1.84e+00,
106,9.60e+01,1.68e+00,1.44e+00,
107,8.60e+01,1.20e+00,1.84e+00,
108,9.40e+01,1.68e+00,1.76e+00,
109,8.40e+01,1.20e+00,1.36e+00,
110,9.00e+01,1.12e+00,1.36e+00,
111,8.20e+01,1.68e+00,1.76e+00,
112,8.60e+01,1.60e+00,1.36e+00,
113,8.00e+01,1.12e+00,1.68e+00,
114,8.40e+01,1.52e+00,1.60e+00,
115,7.60e+01,9.60e-01,1.28e+00,
116,8.00e+01,1.44e+00,1.60e+00,
117,7.40e+01,1.04e+00,1.20e+00,
118,7.80e+01,8.80e-01,1.60e+00,
119,7.20e+01,1.44e+00,1.12e+00,
120,7.80e+01,8.80e-01,1.52e+00,
121,7.00e+01,1.44e+00,1.12e+00,
122,7.60e+01,1.36e+00,1.52e+00,
123,7.00e+01,8.80e-01,1.04e+00,
124,7.40e+01,1.36e+00,1.52e+00,
125,6.60e+01,7.20e-01,1.04e+00,
126,7.00e+01,1.28e+00,1.04e+00,
127,6.40e+01,8.00e-01,1.44e+00,
128,6.80e+01,1.28e+00,1.36e+00,
129,6.20e+01,6.40e-01,9.60e-01,
130,6.20e+01,1.28e+00,9.60e-01,
131,6.80e+01,7.20e-01,1.36e+00,
132,6.60e+01,8.00e-01,9.60e-01,
133,6.20e+01,1.28e+00,1.28e+00,
134,6.60e+01,1.20e+00,1.36e+00,
135,6.00e+01,6.40e-01,9.60e-01,
136,6.40e+01,1.20e+00,1.20e+00,
137,6.00e+01,8.80e-01,9.60e-01,
138,6.40e+01,1.20e+00,8.80e-01,
139,5.60e+01,5.60e-01,1.28e+00,
140,6.00e+01,8.80e-01,1.20e+00,
141,6.40e+01,1.12e+00,9.60e-01,
142,6.00e+01,8.80e-01,1.20e+00,
143,6.20e+01,1.20e+00,8.80e-01,
144,6.20e+01,8.80e-01,9.60e-01,
145,6.00e+01,1.12e+00,1.20e+00,
146,6.00e+01,8.80e-01,1.20e+00,
147,6.20e+01,1.12e+00,8.80e-01,
148,6.00e+01,7.20e-01,1.20e+00,
149,6.40e+01,1.28e+00,8.80e-01,
150,6.00e+01,8.00e-01,1.20e+00,
151,6.60e+01,1.36e+00,8.80e-01,
152,6.20e+01,8.80e-01,9.60e-01,
153,6.60e+01,1.28e+00,1.28e+00,
154,6.60e+01,1.20e+00,9.60e-01,
155,6.20e+01,9.60e-01,1.28e+00,
156,6.20e+01,8.00e-01,9.60e-01,
157,6.60e+01,1.36e+00,1.36e+00,
158,6.20e+01,8.00e-01,9.60e-01,
159,6.80e+01,1.44e+00,1.36e+00,
160,6.60e+01,8.80e-01,1.04e+00,
161,7.00e+01,1.44e+00,1.44e+00,
162,6.60e+01,1.12e+00,1.04e+00,
163,7.40e+01,1.52e+00,1.44e+00,
164,6.80e+01,9.60e-01,1.12e+00,
165,7.40e+01,1.52e+00,1.44e+00,
166,7.20e+01,1.12e+00,1.12e+00,
167,7.60e+01,1.52e+00,1.52e+00,
168,7.20e+01,1.20e+00,1.12e+00,
169,7.80e+01,1.68e+00,1.52e+00,
170,7.60e+01,1.20e+00,1.12e+00,
171,8.00e+01,1.68e+00,1.60e+00,
172,7.80e+01,1.28e+00,1.28e+00,
173,8.40e+01,1.76e+00,1.60e+00,
174,8.00e+01,1.28e+00,1.28e+00,
175,8.60e+01,1.76e+00,1.68e+00,
176,8.40e+01,1.36e+00,1.28e+00,
177,8.80e+01,1.84e+00,1.68e+00,
178,8.60e+01,1.36e+00,1.36e+00,
179,9.00e+01,1.84e+00,1.84e+00,
180,8.60e+01,1.20e+00,1.36e+00,
181,9.40e+01,1.92e+00,1.84e+00,
182,9.20e+01,1.92e+00,1.44e+00,
183,9.60e+01,1.28e+00,2.00e+00,
184,9.40e+01,1.28e+00,1.92e+00,
185,9.80e+01,2.00e+00,1.44e+00,
186,9.60e+01,1.28e+00,1.44e+00,
187,1.02e+02,2.16e+00,2.00e+00,
188,9.80e+01,2.16e+00,2.00e+00,
189,1.06e+02,1.36e+00,1.52e+00,
190,1.02e+02,1.44e+00,1.60e+00,
191,1.08e+02,2.16e+00,2.00e+00,
192,1.04e+02,2.24e+00,1.68e+00,
193,1.10e+02,1.44e+00,2.16e+00,
194,1.06e+02,1.52e+00,2.08e+00,
195,1.10e+02,2.32e+00,1.60e+00,
196,1.08e+02,1.52e+00,1.68e+00,
197,1.16e+02,2.32e+00,2.24e+00,
198,1.16e+02,1.60e+00,1.76e+00,
199,1.10e+02,2.32e+00,2.32e+00,
200,1.14e+02,2.40e+00,1.76e+00,
201,1.18e+02,1.60e+00,2.32e+00,
202,1.14e+02,1.68e+00,1.76e+00,
203,1.20e+02,2.48e+00,2.32e+00,
204,1.16e+02,1.68e+00,1.76e+00,
205,1.22e+02,2.56e+00,2.32e+00,
206,1.18e+02,1.68e+00,2.32e+00,
207,1.26e+02,2.56e+00,1.76e+00,
208,1.20e+02,1.76e+00,1.84e+00,
209,1.26e+02,2.48e+00,2.40e+00,
210,1.20e+02,1.76e+00,1.84e+00,
211,1.28e+02,2.64e+00,2.40e+00,
212,1.24e+02,1.76e+00,1.84e+00,
213,1.28e+02,2.56e+00,2.40e+00,
214,1.24e+02,1.84e+00,1.84e+00,
215,1.28e+02,2.64e+00,2.40e+00,
216,1.26e+02,1.76e+00,2.32e+00,
217,1.30e+02,2.72e+00,1.84e+00,
218,1.26e+02,1.92e+00,2.40e+00,
219,1.30e+02,2.72e+00,1.84e+00,
220,1.26e+02,2.08e+00,2.32e+00,
221,1.28e+02,2.32e+00,2.16e+00,
222,1.26e+02,2.08e+00,2.16e+00,
223,1.28e+02,2.24e+00,2.32e+00,
224,1.28e+02,2.08e+00,2.32e+00,
225,1.24e+02,2.24e+00,2.16e+00,
226,1.24e+02,2.08e+00,2.32e+00,
227,1.28e+02,2.24e+00,2.16e+00,
228,1.24e+02,2.24e+00,2.16e+00,
229,1.26e+02,2.00e+00,2.32e+00,
230,1.24e+02,2.24e+00,2.16e+00,
231,1.26e+02,2.00e+00,2.32e+00,
232,1.26e+02,2.24e+00,2.16e+00,
233,1.22e+02,2.00e+00,2.32e+00,
234,1.26e+02,2.24e+00,2.16e+00,
235,1.20e+02,2.00e+00,2.32e+00,
236,1.20e+02,2.00e+00,2.24e+00,
237,1.26e+02,2.24e+00,2.00e+00,
238,1.22e+02,2.00e+00,2.24e+00,
239,1.20e+02,2.24e+00,2.00e+00,
240,1.22e+02,2.40e+00,2.00e+00,
241,1.16e+02,1.68e+00,2.48e+00,
242,1.20e+02,1.68e+00,2.32e+00,
243,1.16e+02,2.24e+00,1.92e+00,
244,1.20e+02,2.32e+00,1.84e+00,
245,1.14e+02,1.68e+00,2.32e+00,
246,1.18e+02,1.68e+00,1.92e+00,
247,1.12e+02,2.32e+00,2.32e+00,
248,1.16e+02,1.60e+00,2.24e+00,
249,1.08e+02,2.24e+00,1.60e+00,
250,1.14e+02,1.60e+00,2.32e+00,
251,1.08e+02,2.24e+00,1.76e+00,
252,1.12e+02,2.24e+00,2.00e+00,
253,1.04e+02,1.52e+00,1.76e+00,
254,1.10e+02,1.52e+00,1.68e+00,
255,1.02e+02,2.16e+00,2.08e+00,
256,1.06e+02,1.52e+00,1.92e+00,
257,9.80e+01,2.16e+00,1.52e+00,
258,1.02e+02,2.00e+00,1.52e+00,
259,9.60e+01,1.44e+00,2.08e+00,
260,1.00e+02,2.00e+00,1.60e+00,
261,9.40e+01,1.36e+00,2.08e+00,
262,1.00e+02,1.36e+00,2.00e+00,
263,9.20e+01,1.92e+00,1.44e+00,
264,9.80e+01,1.92e+00,2.00e+00,
265,9.00e+01,1.28e+00,1.44e+00,
266,9.40e+01,1.84e+00,1.92e+00,
267,8.60e+01,1.20e+00,1.36e+00,
268,9.20e+01,1.84e+00,1.36e+00,
269,8.40e+01,1.20e+00,1.84e+00,
270,9.00e+01,1.20e+00,1.28e+00,
271,8.20e+01,1.76e+00,1.84e+00,
272,8.60e+01,1.68e+00,1.68e+00,
273,8.00e+01,1.12e+00,1.28e+00,
274,8.40e+01,1.68e+00,1.60e+00,
275,7.60e+01,1.04e+00,1.28e+00,
276,8.00e+01,1.52e+00,1.60e+00,
277,7.40e+01,9.60e-01,1.20e+00,
278,7.80e+01,1.52e+00,1.20e+00,
279,7.20e+01,9.60e-01,1.52e+00,
280,7.80e+01,1.44e+00,1.52e+00,
281,7.00e+01,8.00e-01,1.04e+00,
282,7.60e+01,9.60e-01,1.44e+00,
283,7.00e+01,1.44e+00,1.04e+00,
284,7.40e+01,1.36e+00,1.04e+00,
285,6.60e+01,7.20e-01,1.52e+00,
286,7.00e+01,1.28e+00,1.44e+00,
287,6.40e+01,8.00e-01,1.04e+00,
288,6.80e+01,1.28e+00,1.36e+00,
289,6.20e+01,7.20e-01,9.60e-01,
290,6.80e+01,1.20e+00,9.60e-01,
291,6.20e+01,8.00e-01,1.44e+00,
292,6.60e+01,1.20e+00,1.36e+00,
293,6.00e+01,7.20e-01,9.60e-01,
294,6.60e+01,1.20e+00,1.28e+00,
295,6.00e+01,8.00e-01,9.60e-01,
296,6.40e+01,1.20e+00,1.36e+00,
297,6.00e+01,5.60e-01,9.60e-01,
298,6.40e+01,1.20e+00,1.28e+00,
299,5.80e+01,6.40e-01,9.60e-01,
300,6.00e+01,8.80e-01,9.60e-01,
301,6.40e+01,1.20e+00,1.28e+00,
302,6.00e+01,1.20e+00,9.60e-01,
303,6.40e+01,8.80e-01,1.28e+00,
304,6.00e+01,8.80e-01,9.60e-01,
305,6.40e+01,1.20e+00,1.20e+00,
306,6.00e+01,8.80e-01,9.60e-01,
307,6.40e+01,1.20e+00,1.20e+00,
308,6.00e+01,8.80e-01,1.36e+00,
309,6.40e+01,1.36e+00,8.80e-01,
310,6.40e+01,8.80e-01,9.60e-01,
311,6.00e+01,1.20e+00,1.28e+00,
312,6.00e+01,8.80e-01,1.36e+00,
313,6.60e+01,1.36e+00,8.80e-01,
314,6.20e+01,1.28e+00,1.28e+00,
315,6.60e+01,8.80e-01,8.80e-01,
316,6.20e+01,9.60e-01,9.60e-01,
317,6.80e+01,1.36e+00,1.44e+00,
318,6.40e+01,1.36e+00,1.36e+00,
319,6.80e+01,8.80e-01,9.60e-01,
320,6.60e+01,9.60e-01,1.44e+00,
321,7.00e+01,1.44e+00,9.60e-01,
322,6.60e+01,1.04e+00,1.04e+00,
323,7.20e+01,1.36e+00,1.44e+00,
324,7.00e+01,1.04e+00,1.04e+00,
325,7.40e+01,1.44e+00,1.44e+00,
326,7.20e+01,9.60e-01,1.44e+00,
327,7.60e+01,1.52e+00,1.04e+00,
328,7.40e+01,1.12e+00,1.12e+00,
329,7.80e+01,1.52e+00,1.52e+00,
330,7.60e+01,1.12e+00,1.52e+00,
331,8.00e+01,1.52e+00,1.12e+00,
332,7.80e+01,1.12e+00,1.28e+00,
333,8.40e+01,1.52e+00,1.60e+00,
334,8.00e+01,1.20e+00,1.60e+00,
335,8.60e+01,1.68e+00,1.28e+00,
336,8.40e+01,1.20e+00,1.36e+00,
337,8.80e+01,1.68e+00,1.68e+00,
338,8.40e+01,1.20e+00,1.68e+00,
339,9.00e+01,1.76e+00,1.36e+00,
340,8.80e+01,1.28e+00,1.36e+00,
341,9.40e+01,1.76e+00,1.84e+00,
342,9.20e+01,1.36e+00,1.44e+00,
343,9.60e+01,1.84e+00,1.84e+00,
344,9.40e+01,1.44e+00,1.44e+00,
345,9.80e+01,1.84e+00,1.92e+00,
346,9.60e+01,2.00e+00,1.92e+00,
347,1.02e+02,1.52e+00,1.52e+00,
348,9.80e+01,1.52e+00,2.00e+00,
349,1.06e+02,1.92e+00,1.52e+00,
350,1.02e+02,1.44e+00,1.60e+00,
351,1.08e+02,2.08e+00,2.00e+00,
352,1.04e+02,2.08e+00,1.76e+00,
353,1.08e+02,1.60e+00,2.08e+00,
354,1.06e+02,2.16e+00,1.76e+00,
355,1.10e+02,1.60e+00,2.08e+00,
356,1.08e+02,1.60e+00,1.76e+00,
357,1.14e+02,2.24e+00,2.16e+00,
358,1.16e+02,2.24e+00,2.16e+00,
359,1.10e+02,1.68e+00,1.76e+00,
360,1.14e+02,1.68e+00,1.84e+00,
361,1.18e+02,2.32e+00,2.24e+00,
362,1.16e+02,1.68e+00,1.84e+00,
363,1.20e+02,2.40e+00,2.32e+00,
364,1.16e+02,1.76e+00,1.92e+00,
365,1.22e+02,2.40e+00,2.40e+00,
366,1.18e+02,1.76e+00,1.92e+00,
367,1.24e+02,2.40e+00,2.40e+00,
368,1.20e+02,1.76e+00,1.92e+00,
369,1.26e+02,2.48e+00,2.40e+00,
370,1.20e+02,1.84e+00,1.92e+00,
371,1.28e+02,2.56e+00,2.32e+00,
372,1.24e+02,1.84e+00,2.00e+00,
373,1.28e+02,2.64e+00,2.48e+00,
374,1.24e+02,1.76e+00,2.00e+00,
375,1.28e+02,2.48e+00,2.40e+00,
376,1.24e+02,1.84e+00,2.48e+00,
377,1.30e+02,2.56e+00,2.00e+00,
378,1.26e+02,1.92e+00,2.00e+00,
379,1.30e+02,2.64e+00,2.48e+00,
380,1.26e+02,2.08e+00,2.40e+00,
381,1.28e+02,2.32e+00,2.08e+00,
382,1.26e+02,2.24e+00,2.16e+00,
383,1.28e+02,2.08e+00,2.40e+00,
384,1.28e+02,2.08e+00,2.16e+00,
385,1.24e+02,2.24e+00,2.40e+00,
386,1.24e+02,2.24e+00,2.16e+00,
387,1.28e+02,2.08e+00,2.40e+00,
388,1.24e+02,2.24e+00,2.16e+00,
389,1.26e+02,2.08e+00,2.40e+00,
390,1.24e+02,2.24e+00,2.16e+00,
391,1.26e+02,2.00e+00,2.32e+00,
392,1.26e+02,2.24e+00,2.40e+00,
393,1.20e+02,2.00e+00,2.00e+00,
394,1.20e+02,2.24e+00,2.32e+00,
395,1.26e+02,2.00e+00,2.08e+00,
396,1.24e+02,2.16e+00,2.32e+00,
397,1.20e+02,2.00e+00,2.00e+00,
398,1.20e+02,2.00e+00,2.32e+00,
399,1.22e+02,2.24e+00,2.00e+00,
400,1.22e+02,2.32e+00,2.24e+00,
401,1.16e+02,1.68e+00,1.76e+00,
402,1.20e+02,2.16e+00,1.84e+00,
403,1.16e+02,1.76e+00,2.24e+00,
404,1.20e+02,1.84e+00,2.24e+00,
405,1.14e+02,2.24e+00,1.76e+00,
406,1.18e+02,2.24e+00,2.16e+00,
407,1.12e+02,1.68e+00,1.84e+00,
408,1.16e+02,2.24e+00,2.16e+00,
409,1.10e+02,1.60e+00,1.68e+00,
410,1.12e+02,2.08e+00,1.84e+00,
411,1.06e+02,1.60e+00,2.16e+00,
412,1.12e+02,1.60e+00,2.08e+00,
413,1.04e+02,2.16e+00,1.76e+00,
414,1.08e+02,1.68e+00,2.00e+00,
415,1.02e+02,2.08e+00,1.60e+00,
416,1.08e+02,2.00e+00,1.76e+00,
417,9.80e+01,1.36e+00,2.00e+00,
418,1.02e+02,2.00e+00,1.52e+00,
419,9.60e+01,1.52e+00,2.00e+00,
420,1.02e+02,1.92e+00,1.44e+00,
421,9.40e+01,1.28e+00,1.92e+00,
422,1.00e+02,1.92e+00,1.84e+00,
423,9.20e+01,1.28e+00,1.52e+00,
424,9.60e+01,1.84e+00,1.52e+00,
425,9.00e+01,1.20e+00,1.84e+00,
426,9.40e+01,1.20e+00,1.92e+00,
427,8.60e+01,1.84e+00,1.44e+00,
428,9.00e+01,1.12e+00,1.44e+00,
429,8.40e+01,1.84e+00,1.84e+00,
430,9.00e+01,1.84e+00,1.84e+00,
431,8.20e+01,1.12e+00,1.36e+00,
432,8.60e+01,1.12e+00,1.36e+00,
433,8.00e+01,1.76e+00,1.68e+00,
434,8.40e+01,1.04e+00,1.68e+00,
435,7.80e+01,1.68e+00,1.28e+00,
436,8.00e+01,1.60e+00,1.28e+00,
437,7.40e+01,8.80e-01,1.68e+00,
438,7.80e+01,1.68e+00,1.28e+00,
439,7.20e+01,9.60e-01,1.60e+00,
440,7.80e+01,1.52e+00,1.60e+00,
441,7.20e+01,9.60e-01,1.20e+00,
442,7.60e+01,1.52e+00,1.60e+00,
443,7.00e+01,8.80e-01,1.12e+00,
444,7.40e+01,1.44e+00,1.04e+00,
445,6.60e+01,7.20e-01,1.52e+00,
446,7.00e+01,8.00e-01,1.04e+00,
447,6.40e+01,1.44e+00,1.52e+00,
448,6.80e+01,1.36e+00,1.04e+00,
449,6.20e+01,7.20e-01,1.52e+00,
450,6.80e+01,1.36e+00,9.60e-01,
451,6.20e+01,7.20e-01,1.44e+00,
452,6.60e+01,1.28e+00,1.04e+00,
453,6.00e+01,6.40e-01,1.44e+00,
454,6.20e+01,1.20e+00,1.04e+00,
455,6.60e+01,9.60e-01,1.20e+00,
456,6.40e+01,1.20e+00,9.60e-01,
457,5.80e+01,6.40e-01,1.36e+00,
458,6.40e+01,8.80e-01,1.20e+00,
459,6.00e+01,1.20e+00,9.60e-01,
460,6.40e+01,8.80e-01,9.60e-01,
461,6.00e+01,1.20e+00,1.20e+00,
462,6.00e+01,8.80e-01,1.12e+00,
463,6.40e+01,1.20e+00,9.60e-01,
464,6.00e+01,8.80e-01,9.60e-01,
465,6.40e+01,1.20e+00,1.20e+00,
466,6.40e+01,8.80e-01,9.60e-01,
467,6.00e+01,1.20e+00,1.20e+00,
468,6.00e+01,8.80e-01,9.60e-01,
469,6.40e+01,1.20e+00,1.20e+00,
470,6.00e+01,8.00e-01,1.28e+00,
471,6.60e+01,1.28e+00,8.00e-01,
472,6.20e+01,8.80e-01,8.00e-01,
473,6.60e+01,1.36e+00,1.36e+00,
474,6.60e+01,1.20e+00,1.04e+00,
475,6.20e+01,9.60e-01,1.28e+00,
476,6.20e+01,1.28e+00,1.44e+00,
477,6.80e+01,8.00e-01,8.00e-01,
478,6.20e+01,8.80e-01,1.52e+00,
479,6.80e+01,1.36e+00,8.00e-01,
480,6.60e+01,1.36e+00,1.44e+00,
481,7.00e+01,8.80e-01,8.80e-01,
482,6.60e+01,8.80e-01,1.52e+00,
483,7.20e+01,1.44e+00,8.80e-01,
484,6.80e+01,1.04e+00,8.80e-01,
485,7.40e+01,1.44e+00,1.60e+00,
486,7.20e+01,1.04e+00,1.60e+00,
487,7.60e+01,1.44e+00,9.60e-01,
488,7.40e+01,1.12e+00,1.60e+00,
489,7.80e+01,1.52e+00,9.60e-01,
490,7.60e+01,1.12e+00,1.04e+00,
491,8.00e+01,1.52e+00,1.60e+00,
492,7.80e+01,1.20e+00,1.04e+00,
493,8.40e+01,1.60e+00,1.68e+00,
494,8.20e+01,1.20e+00,1.68e+00,
495,8.60e+01,1.60e+00,1.12e+00,
496,8.40e+01,1.28e+00,1.20e+00,
497,8.80e+01,1.68e+00,1.84e+00,
498,8.40e+01,1.28e+00,1.20e+00,
499,9.00e+01,1.76e+00,1.84e+00,
500,8.80e+01,1.84e+00,1.28e+00,
501,9.40e+01,1.28e+00,1.84e+00,
502,9.20e+01,1.36e+00,1.36e+00,
503,9.60e+01,1.84e+00,1.92e+00,
504,9.40e+01,1.44e+00,1.44e+00,
505,9.80e+01,1.84e+00,2.00e+00,
506,9.60e+01,1.52e+00,1.44e+00,
507,1.02e+02,1.92e+00,2.00e+00,
508,9.80e+01,1.52e+00,2.00e+00,
509,1.04e+02,2.00e+00,1.52e+00,
510,1.02e+02,1.60e+00,1.52e+00,
511,1.06e+02,2.00e+00,2.08e+00,
512,1.04e+02,1.60e+00,2.08e+00,
513,1.10e+02,2.00e+00,1.52e+00,
514,1.06e+02,1.60e+00,1.68e+00,
515,1.10e+02,2.16e+00,2.08e+00,
516,1.08e+02,1.68e+00,1.76e+00,
517,1.16e+02,2.16e+00,2.08e+00,
518,1.10e+02,1.68e+00,2.16e+00,
519,1.16e+02,2.16e+00,1.76e+00,
520,1.14e+02,2.16e+00,2.16e+00,
521,1.18e+02,1.76e+00,1.84e+00,
522,1.16e+02,2.24e+00,2.16e+00,
523,1.20e+02,1.76e+00,1.84e+00,
524,1.16e+02,1.84e+00,1.84e+00,
525,1.22e+02,2.32e+00,2.32e+00,
526,1.18e+02,1.76e+00,1.92e+00,
527,1.26e+02,2.32e+00,2.32e+00,
528,1.20e+02,1.84e+00,2.32e+00,
529,1.26e+02,2.32e+00,1.92e+00,
530,1.20e+02,1.92e+00,1.92e+00,
531,1.28e+02,2.40e+00,2.40e+00,
532,1.24e+02,2.00e+00,2.00e+00,
533,1.28e+02,2.40e+00,2.40e+00,
534,1.24e+02,1.92e+00,2.00e+00,
535,1.28e+02,2.40e+00,2.40e+00,
536,1.24e+02,2.08e+00,2.00e+00,
537,1.30e+02,2.48e+00,2.40e+00,
538,1.26e+02,1.92e+00,2.40e+00,
539,1.30e+02,2.48e+00,2.00e+00,
540,1.26e+02,2.08e+00,2.16e+00,
541,1.28e+02,2.32e+00,2.40e+00,
542,1.26e+02,2.32e+00,2.16e+00,
543,1.28e+02,2.00e+00,2.40e+00,
544,1.28e+02,2.08e+00,2.16e+00,
545,1.24e+02,2.24e+00,2.40e+00,
546,1.28e+02,2.24e+00,2.40e+00,
547,1.24e+02,2.00e+00,2.00e+00,
548,1.24e+02,2.00e+00,2.40e+00,
549,1.26e+02,2.24e+00,2.00e+00,
550,1.24e+02,2.00e+00,2.00e+00,
551,1.26e+02,2.24e+00,2.32e+00,
552,1.26e+02,2.24e+00,2.32e+00,
553,1.20e+02,2.00e+00,2.00e+00,
554,1.26e+02,2.00e+00,2.00e+00,
555,1.20e+02,2.24e+00,2.32e+00,
556,1.24e+02,2.00e+00,2.32e+00,
557,1.20e+02,2.24e+00,1.92e+00,
558,1.22e+02,2.00e+00,1.92e+00,
559,1.20e+02,2.24e+00,2.32e+00,
560,1.22e+02,2.24e+00,2.24e+00,
561,1.16e+02,1.76e+00,1.84e+00,
562,1.22e+02,2.16e+00,2.16e+00,
563,1.16e+02,1.68e+00,1.84e+00,
564,1.20e+02,2.16e+00,2.16e+00,
565,1.14e+02,1.68e+00,1.76e+00,
566,1.18e+02,2.08e+00,2.16e+00,
567,1.12e+02,1.68e+00,1.68e+00,
568,1.16e+02,2.08e+00,2.08e+00,
569,1.08e+02,1.60e+00,1.68e+00,
570,1.16e+02,2.00e+00,2.08e+00,
571,1.08e+02,1.60e+00,1.68e+00,
572,1.12e+02,2.00e+00,1.52e+00,
573,1.04e+02,1.60e+00,2.00e+00,
574,1.10e+02,1.92e+00,2.00e+00,
575,1.02e+02,1.52e+00,1.52e+00,
576,1.08e+02,1.92e+00,1.92e+00,
577,1.00e+02,1.52e+00,1.44e+00,
578,1.02e+02,1.92e+00,1.92e+00,
579,9.60e+01,1.44e+00,1.44e+00,
580,1.00e+02,1.84e+00,1.84e+00,
581,9.40e+01,1.36e+00,1.44e+00,
582,1.00e+02,1.36e+00,1.84e+00,
583,9.20e+01,1.84e+00,1.36e+00,
584,9.60e+01,1.28e+00,1.36e+00,
585,9.00e+01,1.76e+00,1.84e+00,
586,9.40e+01,1.28e+00,1.28e+00,
587,8.60e+01,1.76e+00,1.76e+00,
588,9.20e+01,1.76e+00,1.28e+00,
589,8.40e+01,1.20e+00,1.68e+00,
590,9.00e+01,1.20e+00,1.28e+00,
591,8.20e+01,1.68e+00,1.68e+00,
592,8.60e+01,1.60e+00,1.60e+00,
593,8.00e+01,1.12e+00,1.20e+00,
594,8.40e+01,1.52e+00,1.28e+00,
595,7.60e+01,1.12e+00,1.60e+00,
596,8.00e+01,1.52e+00,1.52e+00,
597,7.40e+01,1.04e+00,1.04e+00,
598,7.80e+01,1.52e+00,1.52e+00,
599,7.00e+01,8.80e-01,1.12e+00,
600,7.60e+01,8.00e-01,1.52e+00,
601,7.00e+01,1.44e+00,1.20e+00,
602,7.60e+01,1.44e+00,1.44e+00,
603,6.80e+01,8.80e-01,1.12e+00,
604,7.40e+01,1.44e+00,1.12e+00,
605,6.60e+01,8.00e-01,1.44e+00,
606,7.00e+01,1.36e+00,1.12e+00,
607,6.40e+01,7.20e-01,1.52e+00,
608,6.80e+01,1.36e+00,9.60e-01,
609,6.20e+01,7.20e-01,1.28e+00,
610,6.80e+01,1.28e+00,8.80e-01,
611,6.00e+01,6.40e-01,1.44e+00,
612,6.60e+01,8.80e-01,1.04e+00,
613,6.20e+01,1.36e+00,1.28e+00,
614,6.60e+01,1.36e+00,9.60e-01,
615,5.80e+01,6.40e-01,1.44e+00,
616,6.20e+01,1.20e+00,1.04e+00,
617,6.40e+01,8.80e-01,1.20e+00,
618,6.40e+01,1.20e+00,1.36e+00,
619,5.60e+01,6.40e-01,8.80e-01,
620,6.00e+01,1.20e+00,9.60e-01,
621,6.20e+01,8.80e-01,1.20e+00,
622,6.00e+01,8.80e-01,9.60e-01,
623,6.20e+01,1.12e+00,1.20e+00,
624,6.00e+01,8.80e-01,9.60e-01,
